<?xml version="1.0" standalone="no"?>
<!DOCTYPE svg PUBLIC "-//W3C//DTD SVG 1.1//EN" "http://www.w3.org/Graphics/SVG/1.1/DTD/svg11.dtd" >
<svg xmlns="http://www.w3.org/2000/svg" xmlns:xlink="http://www.w3.org/1999/xlink" version="1.1">
<metadata></metadata>
<defs>
<font id="siyam_rupaliregular" horiz-adv-x="1128" >
<font-face units-per-em="2048" ascent="1638" descent="-410" />
<missing-glyph horiz-adv-x="744" />
<glyph horiz-adv-x="0" />
<glyph horiz-adv-x="0" />
<glyph unicode="&#xd;" horiz-adv-x="744" />
<glyph unicode=" "  horiz-adv-x="744" />
<glyph unicode="&#x09;" horiz-adv-x="744" />
<glyph unicode="&#xa0;" horiz-adv-x="744" />
<glyph unicode="!" horiz-adv-x="815" d="M390 222q0 46 32.5 78.5t78.5 32.5q45 0 78 -32.5t33 -78.5t-33 -78t-78 -32q-46 0 -78.5 32t-32.5 78zM413 1564h172l-19 -1030h-135z" />
<glyph unicode="&#x22;" horiz-adv-x="960" d="M196 1039v551h141v-551h-141zM622 1045v545h142v-545h-142z" />
<glyph unicode="#" horiz-adv-x="1382" d="M8 597v141h1289v-141h-1289zM108 1127v142h1261v-142h-1261zM235 58l271 1747l142 -22l-270 -1747zM760 58l271 1747l142 -22l-267 -1747z" />
<glyph unicode="$" d="M123 172v172q33 -16 76.5 -32.5t91.5 -29.5t98.5 -21.5t97.5 -8.5v434q-89 30 -154.5 63t-108.5 75.5t-64 97.5t-21 129q0 67 24.5 122.5t70 97t110 68t143.5 35.5v180h138v-176q100 -5 184.5 -26t151.5 -52l-66 -145q-56 25 -126 45.5t-144 26.5v-422q88 -31 155.5 -64 t113 -74.5t68.5 -95t23 -125.5q0 -70 -25 -127t-71.5 -99t-113 -69.5t-150.5 -39.5v-230h-138v221q-50 0 -101 4.5t-99 13.5t-90 22t-74 30zM315 1049q0 -36 8.5 -64.5t28.5 -52t53 -42.5t82 -36v369q-89 -16 -130.5 -60.5t-41.5 -113.5zM625 262q93 14 138.5 63t45.5 121 q0 33 -10 60.5t-31.5 50t-56.5 41.5t-86 37v-373z" />
<glyph unicode="%" horiz-adv-x="1705" d="M80 1083q0 178 93 280.5t251 102.5q153 0 237.5 -95t84.5 -267t-94.5 -275.5t-247.5 -103.5q-148 0 -236 97.5t-88 260.5zM213 1092q0 -121 54 -188.5t147 -67.5q94 0 147 70t53 194q0 121 -52.5 188.5t-143.5 67.5q-95 0 -150 -70.5t-55 -193.5zM342 63l878 1381 l104 -62l-880 -1382zM934 346q0 178 94 281.5t250 103.5q152 0 237 -96t85 -269q0 -171 -94.5 -274.5t-247.5 -103.5q-148 0 -236 98t-88 260zM1067 354q0 -119 54 -186.5t147 -67.5q94 0 147 70.5t53 193.5q0 122 -52.5 188t-143.5 66q-96 0 -150.5 -70t-54.5 -194z" />
<glyph unicode="&#x26;" horiz-adv-x="1448" d="M119 362q0 252 327 420q-155 198 -155 338q0 146 106.5 242t270.5 96q156 0 249 -85t93 -214q0 -127 -69 -216.5t-255 -182.5q206 -218 375 -383q110 162 115 381h151q-1 -272 -172 -486q41 -40 271 -272h-230l-154 158q-194 -182 -468 -182q-213 0 -334 109t-121 277z M286 368q0 -112 81.5 -183t206.5 -71q220 0 374 142q-140 142 -410 426q-252 -123 -252 -314zM454 1120q0 -109 142 -266q254 122 254 291q0 77 -52.5 129.5t-125.5 52.5q-100 0 -159 -58t-59 -149z" />
<glyph unicode="'" horiz-adv-x="425" d="M143 1045v561h142v-561h-142z" />
<glyph unicode="(" horiz-adv-x="921" d="M171 728q0 172 37.5 342.5t113 325t191.5 288.5t273 237l82 -111q-140 -87 -245 -206t-173.5 -260t-102.5 -297t-34 -317q0 -166 36 -330t105.5 -313.5t171.5 -278t234 -222.5l-89 -103q-146 108 -258 249t-187.5 302.5t-115 338t-39.5 355.5z" />
<glyph unicode=")" horiz-adv-x="921" d="M94 1810l83 111q150 -125 264 -269t189.5 -300.5t114 -322t38.5 -332.5q0 -164 -37 -326.5t-110.5 -318t-185 -299t-260.5 -270.5l-87 103q135 109 236 240.5t168.5 276.5t100.5 299t33 308q0 159 -34.5 314t-103 297t-171 266.5t-238.5 222.5z" />
<glyph unicode="*" horiz-adv-x="1382" d="M171 1538l72 116l379 -224v414h135v-422l388 193l66 -122l-373 -208l368 -224l-72 -116l-377 229v-433h-135v446l-379 -208l-66 121l364 219z" />
<glyph unicode="+" horiz-adv-x="1559" d="M82 657v142h625v614h143v-614h624v-142h-625v-633h-142v633h-625z" />
<glyph unicode="," horiz-adv-x="691" d="M174 -329q54 13 98.5 45t75.5 73t48.5 87.5t17.5 89.5q0 34 -10.5 63t-33 50.5t-57.5 34.5t-83 13h-22l43 134q78 0 136.5 -24.5t95.5 -65.5t55 -95t18 -112q0 -61 -19 -124t-56.5 -118t-92.5 -98.5t-127 -66.5z" />
<glyph unicode="-" horiz-adv-x="921" d="M119 552v142h683v-142h-683z" />
<glyph unicode="." horiz-adv-x="691" d="M188 119q0 34 12 63t33 50.5t50 34t63 12.5q72 0 116 -43.5t44 -116.5q0 -33 -12.5 -61t-35 -50t-51.5 -34.5t-61 -12.5q-33 0 -61.5 12.5t-50 34.5t-34 50t-12.5 61z" />
<glyph unicode="/" horiz-adv-x="768" d="M3 -235l685 2132l142 -45l-686 -2131z" />
<glyph unicode="0" d="M98 733q0 177 25.5 317t81 236.5t144 147.5t214.5 51q119 0 207 -50.5t146 -147t87 -236.5t29 -318q0 -177 -25.5 -317t-82 -237t-145.5 -148t-216 -51q-118 0 -205.5 51t-145 148t-86 237t-28.5 317zM283 733q0 -150 15 -262t48 -186.5t86.5 -112t130.5 -37.5t131 37 t88.5 111t50 186.5t15.5 263.5q0 150 -15.5 262t-50 186t-88.5 111t-131 37t-130.5 -37t-86.5 -111t-48 -186t-15 -262z" />
<glyph unicode="1" d="M178 1163l383 299h150v-1462h-176v913q0 43 0.5 92t2 97.5t3 93t2.5 78.5q-17 -18 -30 -31t-26.5 -25t-28.5 -25.5t-36 -31.5l-148 -121z" />
<glyph unicode="2" d="M96 0v156l350 381q75 81 134 148t100.5 131t63.5 128.5t22 140.5q0 59 -17 104t-48.5 76.5t-74.5 47.5t-96 16q-95 0 -171.5 -38.5t-145.5 -98.5l-102 119q40 36 86 67.5t99 54.5t112 36.5t124 13.5q96 0 173.5 -27t131.5 -77.5t83.5 -123t29.5 -163.5q0 -85 -26.5 -162 t-73 -151.5t-111 -149.5t-139.5 -156l-281 -299v-8h689v-166h-912z" />
<glyph unicode="3" d="M82 59v170q87 -46 188.5 -71t194.5 -25q92 0 159 20t110.5 57t64 91t20.5 121q0 68 -26.5 116.5t-75.5 80t-119.5 46.5t-159.5 15h-133v151h133q81 0 144 20t105.5 57t64.5 88t22 112q0 52 -18 93t-51 69.5t-79 43.5t-102 15q-107 0 -188.5 -33.5t-155.5 -87.5l-92 125 q38 31 84.5 58t101.5 47.5t117.5 32.5t132.5 12q108 0 189.5 -27t136.5 -75.5t83 -115t28 -145.5q0 -73 -23 -133t-64.5 -104t-99.5 -72.5t-129 -40.5v-6q177 -22 269 -112.5t92 -235.5q0 -96 -32.5 -176t-98.5 -138t-167 -90t-239 -32q-109 0 -205.5 17t-181.5 62z" />
<glyph unicode="4" d="M23 328v159l663 983h188v-976h213v-166h-213v-328h-176v328h-675zM201 494h497v356q0 56 1.5 117.5t3.5 120t4.5 109.5t3.5 85h-9q-7 -20 -17.5 -44.5t-23 -49t-25.5 -47.5t-24 -39z" />
<glyph unicode="5" d="M131 59v172q33 -23 77.5 -41t93.5 -30t98.5 -18.5t91.5 -6.5q79 0 141 18.5t105 57.5t66 98t23 140q0 143 -88 218.5t-256 75.5q-27 0 -58.5 -2.5t-63 -6.5t-60 -8.5t-49.5 -8.5l-90 57l55 688h690v-166h-532l-39 -419q32 6 84.5 13t124.5 7q99 0 184.5 -27.5t149 -81.5 t99.5 -134t36 -185q0 -114 -34 -205t-101 -154t-165.5 -96.5t-226.5 -33.5q-51 0 -100.5 5t-95 14.5t-86.5 24.5t-74 35z" />
<glyph unicode="6" d="M113 625q0 105 10.5 209t37 199.5t72.5 177.5t117 142.5t170 95t232 34.5q19 0 42 -1t46.5 -3.5t45 -6t38.5 -8.5v-155q-35 12 -79 18t-87 6q-90 0 -158.5 -21.5t-118.5 -60.5t-83.5 -93t-54.5 -119.5t-31 -139.5t-13 -154h12q20 36 48.5 67.5t66.5 54t85.5 35.5 t106.5 13q95 0 172 -29.5t131 -86.5t83.5 -139.5t29.5 -188.5q0 -114 -31 -205t-89 -154.5t-140 -97.5t-184 -34q-100 0 -187.5 39t-151.5 119t-101 201t-37 286zM295 506q0 -67 18.5 -133.5t55 -119.5t91.5 -86.5t128 -33.5q60 0 109.5 20.5t85.5 62t55.5 105t19.5 150.5 q0 70 -16.5 125.5t-49.5 94.5t-82.5 60t-115.5 21q-67 0 -122.5 -23.5t-94.5 -61t-60.5 -85.5t-21.5 -96z" />
<glyph unicode="7" d="M90 1296v166h940v-145l-555 -1317h-194l563 1296h-754z" />
<glyph unicode="8" d="M106 373q0 75 22.5 135t60.5 108t90 85t110 65q-49 31 -92 67.5t-74.5 81.5t-50 99.5t-18.5 120.5q0 87 33.5 152.5t90.5 109.5t131.5 66t155.5 22q84 0 158.5 -22t131 -66t89.5 -110t33 -154q0 -67 -20 -121t-55 -97.5t-83 -78t-104 -62.5q58 -31 113.5 -69t99 -85.5 t70 -106.5t26.5 -132q0 -92 -33.5 -166.5t-94 -126.5t-145 -80t-186.5 -28q-110 0 -195.5 27t-144 77.5t-89 123.5t-30.5 165zM285 371q0 -53 16 -97.5t50 -76t86 -49t124 -17.5q70 0 123.5 17.5t89.5 50t54 78.5t18 102q0 52 -19.5 94t-56 78t-87.5 68t-114 63l-30 14 q-126 -60 -190 -137.5t-64 -187.5zM332 1126q0 -57 17.5 -98t48.5 -73t74.5 -57.5t94.5 -49.5q48 22 90.5 48t74 59t49.5 75t18 96q0 101 -63 154t-173 53q-106 0 -168.5 -53t-62.5 -154z" />
<glyph unicode="9" d="M106 991q0 114 31.5 205.5t89 155t140 97.5t184.5 34q101 0 188 -39t151 -119t101 -201.5t37 -285.5q0 -105 -10.5 -209.5t-37 -199.5t-72.5 -177.5t-117 -142.5t-170 -94.5t-232 -34.5q-19 0 -42 1t-46 3.5t-45 5.5t-39 8v156q35 -13 79 -19t87 -6q135 0 222 47 t138 127.5t72.5 187.5t26.5 226h-13q-20 -36 -48 -67t-66 -54t-86 -36t-107 -13q-95 0 -172 29.5t-131 86.5t-83.5 139.5t-29.5 188.5zM283 991q0 -70 16.5 -125.5t49.5 -94.5t82.5 -60t115.5 -21q68 0 123 23.5t94 61t60.5 85.5t21.5 96q0 67 -18.5 133.5t-55 120 t-91.5 86.5t-128 33q-60 0 -109.5 -20t-85.5 -62t-55.5 -105.5t-19.5 -150.5z" />
<glyph unicode=":" horiz-adv-x="768" d="M208 191q0 33 12.5 62.5t34.5 51.5t51.5 35t62.5 13t62.5 -13t51.5 -35t35 -51.5t13 -62.5t-13 -62.5t-35 -51.5t-51.5 -34.5t-62.5 -12.5t-62.5 12.5t-51.5 34.5t-34.5 51.5t-12.5 62.5zM208 1104q0 33 12.5 62.5t34.5 51.5t51.5 35t62.5 13t62.5 -13t51.5 -35t35 -51.5 t13 -62.5t-13 -62.5t-35 -51.5t-51.5 -34.5t-62.5 -12.5t-62.5 12.5t-51.5 34.5t-34.5 51.5t-12.5 62.5z" />
<glyph unicode=";" horiz-adv-x="768" d="M153 169q77 43 127.5 65t73.5 22q50 0 89.5 -18.5t68 -51t43.5 -77t15 -96.5q0 -143 -92 -259q-28 -38 -80 -83t-127 -102l-83 110q243 172 243 337q0 80 -69 100l-43 -8l-87 -58zM187 997q0 33 12.5 62.5t34.5 51.5t51.5 35t62.5 13t62.5 -13t51.5 -35t35 -51.5 t13 -62.5t-13 -62.5t-35 -51.5t-51.5 -34.5t-62.5 -12.5t-62.5 12.5t-51.5 34.5t-34.5 51.5t-12.5 62.5z" />
<glyph unicode="&#x3c;" horiz-adv-x="1559" d="M74 647v141l1383 642l60 -142l-1208 -566l1200 -567l-60 -139z" />
<glyph unicode="=" horiz-adv-x="1559" d="M82 364v177h1395v-177h-1395zM82 902v177h1395v-177h-1395z" />
<glyph unicode="&#x3e;" horiz-adv-x="1559" d="M85 1288l62 142l1383 -642v-141l-1375 -631l-61 139l1199 567z" />
<glyph unicode="?" horiz-adv-x="853" d="M150 1289q0 47 29 85.5t73 66.5t94 43.5t91 15.5q61 0 122 -25.5t109.5 -68.5t79 -99.5t30.5 -118.5v-15q-6 -75 -27 -133.5t-57.5 -109t-87.5 -98.5t-116 -103q-103 -86 -103 -131q0 -73 69 -119l-82 -106q-59 39 -87.5 96t-28.5 133q0 57 27.5 103.5t70 89t91 83t91 85 t70.5 96.5t28 117q0 38 -16.5 71.5t-43.5 59t-61 40.5t-72 15q-19 0 -45.5 -8t-50.5 -21t-41.5 -27.5t-17.5 -27.5q0 -50 99 -74l-21 -138q-216 37 -216 223zM274 148q0 46 32.5 78.5t78.5 32.5q45 0 78 -32.5t33 -78.5t-33 -78t-78 -32q-46 0 -78.5 32t-32.5 78z" />
<glyph unicode="@" horiz-adv-x="1955" d="M172 606q0 366 233.5 607t596.5 241q340 0 563 -202t223 -527q0 -238 -117.5 -390.5t-286.5 -152.5q-219 0 -220 238h-5q-73 -238 -287 -238q-137 0 -220.5 101t-83.5 272q0 226 115.5 375.5t303.5 149.5q72 0 128.5 -37t72.5 -93h4q2 28 10 115h125q-47 -551 -47 -561 q0 -207 119 -207q108 0 179.5 117t71.5 303q0 275 -174 449t-482 174q-297 0 -491 -208t-194 -520q0 -307 184.5 -495.5t497.5 -188.5q247 0 422 82v-124q-173 -74 -432 -74q-364 0 -586.5 219.5t-222.5 574.5zM708 553q0 -118 51.5 -186t137.5 -68q124 0 196.5 123.5 t72.5 327.5q0 214 -181 214q-124 0 -200.5 -118t-76.5 -293z" />
<glyph unicode="A" horiz-adv-x="1245" d="M0 0l537 1468h170l538 -1468h-190l-160 453h-545l-162 -453h-188zM410 618h426l-148 424q-6 18 -14.5 44t-17.5 56t-18 62.5t-17 63.5q-7 -31 -16 -64t-18 -63.5t-17.5 -56t-14.5 -42.5z" />
<glyph unicode="B" horiz-adv-x="1272" d="M199 0v1462h399q128 0 225.5 -19.5t163 -63t98.5 -114t33 -173.5q0 -62 -19.5 -116t-56.5 -95t-91.5 -68.5t-123.5 -36.5v-10q69 -12 129.5 -34.5t105.5 -62t71 -99.5t26 -146q0 -100 -32.5 -178.5t-94 -133t-149.5 -83.5t-199 -29h-485zM385 158h266q88 0 147.5 20 t96 56t52.5 86.5t16 111.5q0 56 -16.5 103t-54 80.5t-99.5 52t-154 18.5h-254v-528zM385 842h244q84 0 141 15t92 44.5t50.5 74t15.5 103.5q0 120 -77 172t-243 52h-223v-461z" />
<glyph unicode="C" horiz-adv-x="1235" d="M125 733q0 166 43.5 304t128 237t209.5 154t287 55q108 0 206 -22t177 -64l-78 -156q-63 32 -137 55t-168 23q-107 0 -194 -40.5t-148.5 -116.5t-95 -185t-33.5 -246q0 -141 29.5 -250.5t88.5 -184.5t147 -114t206 -39q89 0 169 17.5t158 40.5v-162q-39 -15 -78 -26.5 t-81.5 -18.5t-91 -10.5t-107.5 -3.5q-164 0 -284 54t-198.5 153t-116.5 238t-38 308z" />
<glyph unicode="D" horiz-adv-x="1401" d="M199 0v1462h407q153 0 277 -46t211 -136.5t134.5 -224.5t47.5 -310q0 -185 -48 -324.5t-139 -233t-223.5 -140.5t-300.5 -47h-366zM385 160h162q264 0 398 146t134 433q0 146 -33 252.5t-96 175.5t-155 102.5t-209 33.5h-201v-1143z" />
<glyph unicode="E" horiz-adv-x="1081" d="M199 0v1462h759v-164h-573v-452h535v-162h-535v-520h573v-164h-759z" />
<glyph unicode="F" horiz-adv-x="1006" d="M199 0v1462h759v-164h-573v-516h535v-164h-535v-618h-186z" />
<glyph unicode="G" horiz-adv-x="1413" d="M125 733q0 172 47.5 311t138.5 236.5t224.5 150t304.5 52.5q111 0 213 -22t190 -64l-72 -162q-36 17 -77.5 32t-85.5 26.5t-90.5 18.5t-92.5 7q-122 0 -216 -40.5t-157.5 -116.5t-96.5 -185t-33 -246q0 -130 27.5 -238t87.5 -186t155 -121t229 -43q44 0 80.5 2.5 t67.5 6.5t58.5 9.5t53.5 10.5v436h-299v164h484v-717q-55 -18 -111 -32t-115 -23.5t-124 -14.5t-140 -5q-157 0 -278 52.5t-204 150t-126 237t-43 313.5z" />
<glyph unicode="H" horiz-adv-x="1436" d="M199 0v1462h186v-616h666v616h186v-1462h-186v682h-666v-682h-186z" />
<glyph unicode="I" horiz-adv-x="694" d="M82 0v102l172 41v1176l-172 41v102h530v-102l-172 -41v-1176l172 -41v-102h-530z" />
<glyph unicode="J" horiz-adv-x="555" d="M-184 -205q34 -9 73 -14.5t84 -5.5q37 0 74.5 9.5t68 34.5t49.5 69t19 112v1462h187v-1442q0 -105 -29.5 -182t-82 -127.5t-126 -75t-162.5 -24.5q-51 0 -89 6.5t-66 17.5v160z" />
<glyph unicode="K" horiz-adv-x="1186" d="M199 0v1462h186v-731l121 168l452 563h209l-520 -637l539 -825h-211l-451 698l-139 -114v-584h-186z" />
<glyph unicode="L" horiz-adv-x="1006" d="M199 0v1462h186v-1296h573v-166h-759z" />
<glyph unicode="M" horiz-adv-x="1782" d="M199 0v1462h276l412 -1192h6l414 1192h276v-1462h-186v887q0 52 2 119t5 128q4 71 7 144h-8l-447 -1278h-153l-443 1280h-8q6 -74 10 -147q4 -63 6.5 -132.5t2.5 -126.5v-874h-172z" />
<glyph unicode="N" horiz-adv-x="1493" d="M199 0v1462h213l716 -1204h7q-3 76 -7 150q-1 32 -2.5 65.5l-3 67t-2 64.5t-0.5 57v800h174v-1462h-215l-719 1210h-8q6 -77 10 -153q4 -65 6.5 -136t2.5 -128v-793h-172z" />
<glyph unicode="O" horiz-adv-x="1520" d="M125 735q0 170 38 308.5t117 236.5t199 151.5t283 53.5q155 0 272.5 -53.5t197.5 -152t120.5 -237t40.5 -309.5q0 -169 -40.5 -308t-120.5 -238t-198.5 -153t-273.5 -54q-163 0 -282.5 54t-198 153t-116.5 238.5t-38 309.5zM322 733q0 -137 26 -246.5t79.5 -186t136 -117 t196.5 -40.5t196.5 40.5t136 117t78.5 186t25 246.5q0 138 -25 247t-78 184.5t-135 116t-196 40.5t-197 -40.5t-137 -116t-80 -184.5t-26 -247z" />
<glyph unicode="P" horiz-adv-x="1180" d="M199 0v1462h362q134 0 231 -28.5t160 -83t93 -134.5t30 -182q0 -91 -27.5 -175t-90.5 -148.5t-166.5 -103t-255.5 -38.5h-150v-569h-186zM385 727h129q93 0 162.5 16t115 51.5t68.5 92t23 137.5q0 142 -82 210.5t-256 68.5h-160v-576z" />
<glyph unicode="Q" horiz-adv-x="1518" d="M125 735q0 170 38 308.5t117 236.5t199 151.5t283 53.5q155 0 272.5 -53.5t197.5 -152t120.5 -237t40.5 -309.5q0 -131 -24.5 -244t-72 -203.5t-118.5 -156.5t-164 -104q43 -94 111.5 -165.5t158.5 -131.5l-121 -142q-103 73 -189.5 172t-137.5 226q-17 -2 -37.5 -3 t-38.5 -1q-163 0 -282.5 54t-198 153t-116.5 238.5t-38 309.5zM322 733q0 -137 26 -246.5t79.5 -186t136 -117t196.5 -40.5t196.5 40.5t136 117t78.5 186t25 246.5q0 138 -25 247t-78 184.5t-135 116t-196 40.5t-197 -40.5t-137 -116t-80 -184.5t-26 -247z" />
<glyph unicode="R" horiz-adv-x="1208" d="M199 0v1462h356q266 0 393 -103t127 -312q0 -87 -24.5 -152t-65 -111.5t-92.5 -77.5t-107 -51l398 -655h-219l-351 604h-229v-604h-186zM385 762h164q90 0 153 17.5t103.5 52t59 86t18.5 120.5q0 72 -20.5 122t-62 82t-105 46.5t-150.5 14.5h-160v-541z" />
<glyph unicode="S" horiz-adv-x="1063" d="M104 49v178q34 -16 77.5 -31.5t91.5 -27.5t99 -19.5t101 -7.5q160 0 236.5 60t76.5 172q0 54 -14.5 94t-51 73.5t-97.5 65t-154 68.5q-89 35 -154.5 76.5t-108 93.5t-63 118t-20.5 150q0 88 32 157t90 116.5t138.5 72.5t177.5 25q119 0 214 -22.5t169 -57.5l-67 -156 q-65 29 -147.5 50.5t-170.5 21.5q-122 0 -189 -56.5t-67 -152.5q0 -57 15 -98.5t50 -75t92.5 -63t141.5 -62.5q91 -36 159.5 -74t114.5 -86t69.5 -111t23.5 -149q0 -97 -34.5 -173.5t-98.5 -129.5t-156 -80.5t-207 -27.5q-111 0 -207.5 17.5t-161.5 51.5z" />
<glyph unicode="T" horiz-adv-x="1063" d="M20 1298v164h1022v-164h-417v-1298h-187v1298h-418z" />
<glyph unicode="U" horiz-adv-x="1430" d="M184 520v942h187v-952q0 -175 86.5 -271t261.5 -96q89 0 153 27t105 76t61 117t21 149v952h186v-948q0 -114 -33 -212t-99.5 -170t-167 -113t-236.5 -41q-128 0 -226 38.5t-164.5 109.5t-100.5 170.5t-34 221.5z" />
<glyph unicode="V" horiz-adv-x="1163" d="M0 1462h197l295 -927q29 -91 50 -175.5t38 -158.5q15 74 38 158.5t54 181.5l293 921h198l-489 -1462h-187z" />
<glyph unicode="W" horiz-adv-x="1810" d="M20 1462h197l223 -889q12 -46 22 -95.5t18.5 -98.5t15.5 -94.5t12 -83.5q5 37 12.5 86t17.5 103t21.5 109.5t24.5 104.5l225 858h197l229 -856q15 -56 29.5 -112t27 -108.5t22 -99.5t15.5 -85q4 38 10 83t14 94.5t17.5 101t20.5 100.5l200 882h199l-367 -1462h-188 l-254 938q-14 51 -27 105t-24 101q-12 55 -23 107q-11 -51 -22 -106q-10 -47 -22.5 -103t-26.5 -110l-242 -932h-188z" />
<glyph unicode="X" horiz-adv-x="1120" d="M0 0l453 764l-422 698h198l332 -559l334 559h190l-421 -692l456 -770h-211l-354 635l-367 -635h-188z" />
<glyph unicode="Y" horiz-adv-x="1079" d="M0 1462h203l336 -739l340 739h200l-446 -893v-569h-187v559z" />
<glyph unicode="Z" horiz-adv-x="1104" d="M82 0v145l711 1151h-691v166h899v-145l-710 -1151h731v-166h-940z" />
<glyph unicode="[" horiz-adv-x="600" d="M176 -400v2315h374v-144h-232v-2032h233v-139h-375z" />
<glyph unicode="\" horiz-adv-x="776" d="M-50 1852l142 45l684 -2132l-140 -44z" />
<glyph unicode="]" horiz-adv-x="600" d="M96 -261h233v2032h-232v144h374v-2315h-375v139z" />
<glyph unicode="^" horiz-adv-x="1090" d="M41 549l459 924h102l447 -924h-161l-337 735l-349 -735h-161z" />
<glyph unicode="_" horiz-adv-x="842" d="M-4 -184h850v-140h-850v140z" />
<glyph unicode="`" horiz-adv-x="1182" d="M393 1548v21h219q16 -34 37.5 -74.5t44.5 -81t47 -78.5t45 -67v-27h-120q-35 28 -76 69.5t-79.5 85.5t-70 84.5t-47.5 67.5z" />
<glyph unicode="a" horiz-adv-x="1087" d="M94 307q0 164 115.5 252t351.5 96l184 7v69q0 67 -14.5 112t-42 72.5t-68 39.5t-92.5 12q-83 0 -154.5 -24t-137.5 -58l-64 137q74 40 165 68t191 28q102 0 176.5 -20.5t123 -65t72.5 -113.5t24 -167v-752h-131l-37 152h-8q-33 -45 -66 -77.5t-72 -53.5t-87 -31t-111 -10 q-69 0 -127 19.5t-100.5 60t-66.5 102t-24 145.5zM283 305q0 -92 48.5 -135t127.5 -43q61 0 113 19t90 57.5t59.5 97t21.5 137.5v99l-143 -7q-90 -4 -151 -20t-97.5 -44.5t-52.5 -69t-16 -91.5z" />
<glyph unicode="b" horiz-adv-x="1200" d="M174 0v1556h182v-376q0 -35 -1 -74.5t-3 -73.5q-2 -40 -4 -78h8q23 35 52 65t67.5 52t86.5 34.5t108 12.5q94 0 171 -36t131.5 -107.5t84.5 -177.5t30 -246q0 -141 -30 -247.5t-84.5 -178.5t-131.5 -108.5t-171 -36.5q-59 0 -107 13t-86.5 34.5t-68 50.5t-52.5 61h-12 l-37 -139h-133zM356 551q0 -101 13.5 -179.5t46 -132t86.5 -81t135 -27.5q135 0 198.5 109t63.5 313q0 208 -63.5 311t-200.5 103q-80 0 -133.5 -25.5t-86 -77.5t-46 -130t-13.5 -183z" />
<glyph unicode="c" horiz-adv-x="948" d="M113 543q0 157 38 266.5t104.5 178t155.5 99.5t191 31q78 0 152.5 -17t124.5 -42l-54 -154q-23 10 -51 19.5t-58 17t-59 12t-55 4.5q-157 0 -229 -100.5t-72 -312.5q0 -211 72.5 -308.5t220.5 -97.5q81 0 146.5 18.5t119.5 43.5v-162q-54 -29 -115.5 -44t-150.5 -15 q-101 0 -189 31.5t-153 100t-102 175t-37 256.5z" />
<glyph unicode="d" horiz-adv-x="1200" d="M113 547q0 141 30 247.5t85 178.5t132 108.5t170 36.5q59 0 107 -13t86.5 -35t68.5 -51t52 -61h12q-3 34 -6 65q-2 26 -4 53.5t-2 43.5v436h182v-1556h-147l-27 147h-8q-22 -34 -51.5 -64.5t-68 -53.5t-86.5 -36t-108 -13q-93 0 -170 36t-132 107.5t-85 177.5t-30 246z M301 545q0 -209 63.5 -311.5t200.5 -102.5q76 0 128.5 23t85 70t48 117.5t17.5 164.5v41q0 101 -13.5 179.5t-46 132t-86.5 81t-135 27.5q-135 0 -198.5 -109t-63.5 -313z" />
<glyph unicode="e" horiz-adv-x="1096" d="M113 541q0 136 33 243t93 181.5t143.5 113.5t184.5 39q99 0 178 -35.5t134 -100t84.5 -155t29.5 -200.5v-113h-692q5 -193 81.5 -284t227.5 -91q51 0 94.5 5t84 14.5t78.5 24t77 32.5v-162q-40 -19 -78.5 -33t-79 -23t-84 -13t-94.5 -4q-110 0 -201 37t-156.5 108 t-101.5 176t-36 240zM305 662h492q0 68 -13.5 124.5t-42 96.5t-72.5 62t-106 22q-114 0 -180.5 -78t-77.5 -227z" />
<glyph unicode="f" horiz-adv-x="674" d="M29 961v75l194 68v96q0 107 22.5 177.5t65 112.5t104.5 59.5t140 17.5q59 0 108.5 -11.5t88.5 -25.5l-47 -141q-31 11 -67.5 19.5t-76.5 8.5t-69 -9.5t-48 -33.5t-28.5 -65.5t-9.5 -106.5v-104h245v-137h-245v-961h-183v961h-194z" />
<glyph unicode="g" horiz-adv-x="1061" d="M37 -186q0 60 19.5 105.5t52.5 78.5t76.5 54t90.5 32q-42 19 -69 60t-27 94q0 61 32 105.5t101 86.5q-43 18 -78.5 49.5t-60 72t-38 88.5t-13.5 99q0 89 25 159t74 119t122 75t170 26q37 0 76.5 -5.5t66.5 -14.5h363v-113l-197 -27q28 -35 47 -89.5t19 -123.5 q0 -76 -23.5 -140.5t-71 -111.5t-117.5 -73.5t-163 -26.5q-22 0 -44 0.5t-36 3.5q-17 -10 -33.5 -22.5t-30 -28.5t-22 -36t-8.5 -44q0 -27 12 -43.5t32.5 -25.5t48.5 -12t59 -3h176q93 0 157 -23.5t104.5 -63.5t58.5 -94.5t18 -115.5q0 -88 -32.5 -158t-99.5 -118.5 t-169.5 -74.5t-241.5 -26q-107 0 -187 21t-133 61t-79.5 96.5t-26.5 127.5zM209 -180q0 -37 13 -69t42.5 -55t78 -36.5t120.5 -13.5q186 0 278.5 57.5t92.5 165.5q0 46 -12 75t-39.5 45.5t-72.5 22.5t-110 6h-176q-35 0 -73 -8t-69.5 -30t-52 -60.5t-20.5 -99.5zM301 745 q0 -115 54 -171t153 -56q100 0 151.5 55.5t51.5 174.5q0 123 -52.5 181t-152.5 58q-99 0 -152 -60t-53 -182z" />
<glyph unicode="h" horiz-adv-x="1206" d="M174 0v1556h182v-462l-8 -144h10q25 43 59.5 74.5t75.5 52.5t87 31t94 10q183 0 275.5 -95.5t92.5 -305.5v-717h-182v707q0 130 -52.5 195t-164.5 65q-81 0 -136 -26t-88.5 -77t-48 -125t-14.5 -170v-569h-182z" />
<glyph unicode="i" horiz-adv-x="530" d="M160 1395q0 60 30.5 87t75.5 27q22 0 41.5 -6.5t34 -20.5t23 -35.5t8.5 -51.5q0 -58 -31.5 -86.5t-75.5 -28.5q-45 0 -75.5 28t-30.5 87zM174 0v1098h182v-1098h-182z" />
<glyph unicode="j" horiz-adv-x="530" d="M-68 -319q26 -10 53 -15.5t62 -5.5q27 0 50 7.5t40.5 27t27 52t9.5 83.5v1268h182v-1256q0 -77 -17 -138.5t-53 -105t-90.5 -67t-129.5 -23.5q-48 0 -79.5 7t-54.5 18v148zM160 1395q0 60 30.5 87t75.5 27q22 0 41.5 -6.5t34 -20.5t23 -35.5t8.5 -51.5q0 -58 -31.5 -86.5 t-75.5 -28.5q-45 0 -75.5 28t-30.5 87z" />
<glyph unicode="k" horiz-adv-x="1016" d="M174 0v1556h180v-714l-16 -275h4l135 170l293 361h211l-401 -475l428 -623h-209l-336 504l-109 -82v-422h-180z" />
<glyph unicode="l" horiz-adv-x="530" d="M174 0v1556h182v-1556h-182z" />
<glyph unicode="m" horiz-adv-x="1835" d="M174 0v1098h148l26 -148h10q24 43 57 74.5t72.5 52.5t84 31t90.5 10q120 0 199.5 -44t117.5 -138h8q26 47 62.5 81t80 56.5t91.5 33.5t98 11q175 0 263.5 -95.5t88.5 -305.5v-717h-182v707q0 130 -50 195t-155 65q-73 0 -124 -23.5t-83.5 -69t-47.5 -113t-15 -155.5v-606 h-183v707q0 130 -49.5 195t-154.5 65q-77 0 -129 -26t-83.5 -77t-45 -125t-13.5 -170v-569h-182z" />
<glyph unicode="n" horiz-adv-x="1206" d="M174 0v1098h148l26 -148h10q25 43 59.5 74.5t75.5 52.5t87 31t94 10q183 0 275.5 -95.5t92.5 -305.5v-717h-182v707q0 130 -52.5 195t-164.5 65q-81 0 -136 -26t-88.5 -77t-48 -125t-14.5 -170v-569h-182z" />
<glyph unicode="o" horiz-adv-x="1182" d="M113 551q0 136 33.5 241.5t95.5 178t151.5 110t200.5 37.5q103 0 190 -37.5t150.5 -110t99 -178t35.5 -241.5q0 -137 -33.5 -243.5t-96 -179t-151.5 -110.5t-200 -38q-103 0 -190 38t-150.5 110.5t-99 179t-35.5 243.5zM301 551q0 -209 68.5 -314.5t222.5 -105.5 t221.5 105.5t67.5 314.5t-68.5 312.5t-222.5 103.5t-221.5 -103.5t-67.5 -312.5z" />
<glyph unicode="p" horiz-adv-x="1200" d="M174 -492v1590h148l26 -148h8q23 35 52 65.5t67.5 53t86.5 36t108 13.5q94 0 171 -36t131.5 -107.5t84.5 -177.5t30 -246q0 -141 -30 -247.5t-84.5 -178.5t-131.5 -108.5t-171 -36.5q-59 0 -107 13t-86.5 34.5t-68 50.5t-52.5 61h-12q3 -34 6 -65q2 -26 4 -53.5t2 -43.5 v-469h-182zM356 551q0 -101 13.5 -179.5t46 -132t86.5 -81t135 -27.5q135 0 198.5 109t63.5 313q0 208 -63.5 311t-200.5 103q-76 0 -128.5 -23t-85 -70t-48 -117t-17.5 -165v-41z" />
<glyph unicode="q" horiz-adv-x="1200" d="M113 547q0 141 30 247.5t85 178.5t132 108.5t170 36.5q59 0 107 -13.5t86 -36t68 -53t53 -65.5h8l27 148h147v-1590h-182v469q0 19 2 48t4 56q3 32 6 66h-12q-22 -34 -51.5 -64.5t-68 -53.5t-86.5 -36t-108 -13q-93 0 -170 36t-132 107.5t-85 177.5t-30 246zM301 545 q0 -209 63.5 -311.5t200.5 -102.5q76 0 128.5 23t85 70t48 117.5t17.5 164.5v41q0 101 -13.5 179.5t-46 132t-86.5 81t-135 27.5q-135 0 -198.5 -109t-63.5 -313z" />
<glyph unicode="r" horiz-adv-x="817" d="M174 0v1098h148l22 -201h8q25 43 53.5 83t64 70.5t79.5 49t100 18.5q29 0 65 -2.5t62 -7.5l-24 -168q-28 5 -57.5 8.5t-55.5 3.5q-63 0 -115 -25.5t-89.5 -73t-58 -114t-20.5 -147.5v-592h-182z" />
<glyph unicode="s" horiz-adv-x="924" d="M90 49v166q31 -16 69 -31.5t80 -27.5t86.5 -19.5t88.5 -7.5q65 0 110.5 11t74 31.5t41.5 50t13 65.5q0 31 -10 56t-36.5 49.5t-72.5 49.5t-118 56t-129.5 61t-97.5 67t-61.5 85.5t-21.5 115.5q0 70 27.5 124.5t77.5 91.5t120 56t156 19q97 0 177.5 -21t152.5 -55 l-63 -147q-65 29 -133.5 50.5t-139.5 21.5q-102 0 -151 -33.5t-49 -95.5q0 -35 11.5 -61t39.5 -49t75 -46.5t117 -52.5q72 -30 128.5 -60t96.5 -67.5t61 -85.5t21 -115q0 -80 -29 -140t-83.5 -100.5t-131.5 -60.5t-173 -20q-109 0 -187 17.5t-137 51.5z" />
<glyph unicode="t" horiz-adv-x="694" d="M33 961v81l155 78l78 230h105v-252h276v-137h-276v-637q0 -97 31.5 -146t103.5 -49q18 0 40.5 2t43.5 5t38.5 7t26.5 7v-138q-13 -6 -33 -12t-44 -10.5t-50 -7t-51 -2.5q-62 0 -115 16t-91.5 55t-60.5 105.5t-22 167.5v637h-155z" />
<glyph unicode="u" horiz-adv-x="1206" d="M164 381v717h182v-707q0 -130 53 -195t164 -65q81 0 136 26t88.5 76.5t48 124.5t14.5 170v570h182v-1098h-147l-27 147h-10q-25 -43 -59.5 -74.5t-75.5 -52t-87 -30.5t-94 -10q-91 0 -160 23t-115 72t-69.5 125t-23.5 181z" />
<glyph unicode="v" horiz-adv-x="981" d="M0 1098h188l199 -611q11 -33 26 -85t30 -106t27.5 -102t16.5 -73h7q5 25 17 73t27 102t30 106t26 85l199 611h188l-375 -1098h-231z" />
<glyph unicode="w" horiz-adv-x="1528" d="M20 1098h191l131 -584q10 -45 20 -97.5t19 -104t16 -97t11 -74.5h6q5 26 13.5 69.5t19 92t21.5 96t21 80.5l179 619h196l172 -619q9 -34 20.5 -80t22.5 -93.5t20 -91.5t13 -73h6q3 26 9.5 69.5t15.5 95.5t19.5 106.5t21.5 101.5l137 584h186l-284 -1098h-215l-168 616 q-4 18 -10 40.5t-12 47.5t-12.5 51t-12.5 51q-14 58 -29 120h-6q-14 -63 -27 -121q-11 -50 -23.5 -103t-23.5 -90l-172 -612h-211z" />
<glyph unicode="x" horiz-adv-x="1024" d="M35 0l373 563l-353 535h207l250 -410l250 410h207l-355 -535l373 -563h-207l-268 436l-270 -436h-207z" />
<glyph unicode="y" horiz-adv-x="1001" d="M10 1098h189l215 -613q14 -40 28.5 -84t27 -88t21.5 -85t13 -76h6q5 25 16 68t24.5 91.5t28 95.5t25.5 80l199 611h188l-434 -1241q-28 -81 -60.5 -145.5t-75.5 -109.5t-101 -69.5t-138 -24.5q-52 0 -90 5.5t-65 11.5v145q21 -5 53 -8.5t67 -3.5q48 0 83 11.5t61 33.5 t44.5 54t33.5 73l57 160z" />
<glyph unicode="z" horiz-adv-x="903" d="M82 0v125l536 836h-503v137h688v-146l-524 -815h542v-137h-739z" />
<glyph unicode="{" horiz-adv-x="1327" d="M373 655v113q58 41 93 72.5t53 62.5t23.5 67.5t5.5 87.5v546q0 152 80 224q15 12 71.5 43t157.5 81l58 -127q-79 -31 -124.5 -52.5t-67.5 -51t-27.5 -76.5t-5.5 -128v-522q0 -143 -162 -285q84 -66 123 -173.5t39 -270.5v-401q0 -53 3.5 -86t23 -59t61 -50.5t118.5 -59.5 l-58 -124q-93 39 -149.5 74.5t-87.5 85.5t-42 121.5t-11 182.5v417q0 53 -4 88t-21.5 64.5t-52.5 61t-97 74.5z" />
<glyph unicode="|" horiz-adv-x="522" d="M185 -338v2312h142v-2312h-142z" />
<glyph unicode="}" horiz-adv-x="1327" d="M401 1825l58 127q104 -47 166 -83t82 -61q30 -35 49 -107t19 -178v-520q0 -38 3.5 -64t19.5 -50.5t50 -52t94 -68.5l-2 -113q-56 -33 -88.5 -62t-49 -68t-22 -97t-5.5 -149v-326q0 -104 -11.5 -175t-44 -122.5t-90.5 -90.5t-151 -79l-58 124q26 16 60 36.5t66.5 46t57 57 t29.5 70.5v431q0 78 2 135.5t7.5 98.5t16.5 71t27.5 55t41.5 48t60 51q-83 65 -119 160t-36 222v528q-11 50 -26.5 79.5t-42.5 49.5t-66.5 36t-96.5 40z" />
<glyph unicode="~" d="M102 586v162q100 108 248 108q29 0 54 -2.5t52.5 -9t61 -19t80.5 -32.5q37 -16 64.5 -27t51 -17.5t43.5 -9t42 -2.5q28 0 58 9.5t59.5 26t57.5 38.5t52 47v-162q-99 -108 -248 -108q-29 0 -54 2.5t-52.5 9t-61 19t-80.5 32.5q-37 16 -64.5 27t-50 17.5t-43 9t-42.5 2.5 q-28 0 -58 -9.5t-59.5 -26t-57.5 -38.5t-53 -47z" />
<glyph unicode="&#xa1;" horiz-adv-x="551" d="M147 979q0 37 10 63t27.5 43t40.5 25t49 8q27 0 50 -8t40.5 -25t27 -43t9.5 -63q0 -38 -9.5 -64.5t-27 -43t-40.5 -24t-50 -7.5q-26 0 -49 7.5t-40.5 24t-27.5 43t-10 64.5zM162 -373l51 1049h121l51 -1049h-223z" />
<glyph unicode="&#xa2;" d="M188 743q0 141 26.5 242.5t75 169.5t118 105.5t155.5 50.5v172h137v-164q72 -3 140 -19.5t114 -39.5l-53 -154q-23 10 -51 19.5t-58 17t-59.5 12t-54.5 4.5q-157 0 -229 -101t-72 -313q0 -210 72.5 -307.5t220.5 -97.5q81 0 146.5 18.5t119.5 42.5v-161q-50 -28 -105 -43 t-131 -17v-200h-137v206q-87 13 -156 50.5t-118 104t-75 166t-26 236.5z" />
<glyph unicode="&#xa3;" d="M68 0v154q44 11 80.5 31.5t63 54.5t41.5 82.5t15 115.5v213h-198v137h198v324q0 87 29.5 155.5t82 116t125.5 72.5t161 25q106 0 193 -22.5t153 -57.5l-66 -144q-56 29 -126.5 50.5t-145.5 21.5q-48 0 -89 -13.5t-71 -43t-46.5 -76.5t-16.5 -113v-295h376v-137h-376v-211 q0 -62 -11.5 -106.5t-31 -76.5t-45 -53.5t-52.5 -37.5h748v-166h-991z" />
<glyph unicode="&#xa4;" d="M123 1065l98 98l127 -129q47 32 101 50t114 18t113.5 -18t99.5 -50l129 129l99 -96l-130 -129q31 -46 49.5 -100.5t18.5 -114.5t-17.5 -115t-50.5 -100l127 -127l-96 -96l-129 127q-46 -31 -99.5 -48.5t-113.5 -17.5t-115 18t-100 50l-127 -127l-96 96l127 127 q-31 45 -48.5 99t-17.5 114q0 59 17.5 112.5t48.5 100.5zM324 723q0 -50 18.5 -93.5t51 -76t76 -51.5t93.5 -19q51 0 95.5 19t77.5 51.5t52 76t19 93.5q0 51 -19 95.5t-52 77.5t-77.5 52t-95.5 19q-50 0 -93.5 -19t-76 -52t-51 -77.5t-18.5 -95.5z" />
<glyph unicode="&#xa5;" d="M29 1462h192l342 -739l346 739h191l-385 -768h239v-137h-301v-158h301v-137h-301v-262h-178v262h-301v137h301v158h-301v137h234z" />
<glyph unicode="&#xa6;" d="M489 289h150v-781h-150v781zM489 776v780h150v-780h-150z" />
<glyph unicode="&#xa7;" horiz-adv-x="995" d="M121 55v158q31 -15 69 -30t80 -26.5t86.5 -18.5t87.5 -7q69 0 115.5 12t74 31.5t39 45t11.5 52.5q0 29 -8.5 51.5t-34 45t-72.5 47t-123 55.5q-73 31 -130.5 62t-97.5 70t-60.5 89t-20.5 117q0 51 13 92.5t35.5 73.5t51.5 54.5t60 37.5q-75 38 -117.5 95t-42.5 141 q0 61 27.5 110t77.5 83t120 52.5t156 18.5q97 0 175.5 -20t150.5 -52l-56 -139q-65 28 -135 47.5t-141 19.5q-99 0 -150 -29.5t-51 -86.5q0 -27 12 -50t40.5 -45t76 -45.5t117.5 -52.5q72 -28 128.5 -60.5t95.5 -71.5t60 -87.5t21 -110.5q0 -52 -12 -94.5t-32.5 -76.5 t-46.5 -58.5t-54 -40.5q69 -38 107 -92.5t38 -132.5q0 -71 -29.5 -126.5t-83.5 -94t-131.5 -58.5t-173.5 -20q-108 0 -186 16.5t-137 48.5zM291 831q0 -37 14 -68.5t45.5 -60.5t82 -56.5t122.5 -57.5l35 -15q20 13 40.5 31t37 41t27 51t10.5 62q0 38 -13 70t-45.5 61.5 t-86.5 58t-136 58.5q-25 -8 -48.5 -23.5t-42.5 -38t-30.5 -51.5t-11.5 -62z" />
<glyph unicode="&#xa8;" horiz-adv-x="1182" d="M307 1395q0 54 28 78t68 24q39 0 68 -24.5t29 -77.5t-29 -78t-68 -25q-40 0 -68 25t-28 78zM682 1395q0 54 28 78t68 24q19 0 36.5 -6t30.5 -18.5t21 -31.5t8 -46q0 -53 -29 -78t-67 -25q-40 0 -68 25t-28 78z" />
<glyph unicode="&#xa9;" horiz-adv-x="1704" d="M100 731q0 104 27 200t75.5 179.5t117.5 152.5t152.5 117.5t179.5 75.5t200 27t200 -27t179.5 -75.5t152.5 -117.5t117.5 -152.5t75.5 -179.5t27 -200t-27 -200t-75.5 -179.5t-117.5 -152t-152.5 -117.5t-179.5 -75.5t-200 -26.5t-200 26.5t-179.5 75.5t-152.5 117.5 t-117.5 152t-75.5 179.5t-27 200zM209 731q0 -133 50.5 -250t138 -204.5t204.5 -138t250 -50.5t250 50.5t204.5 138t138 204.5t50.5 250t-50.5 250t-138 204.5t-204.5 138t-250 50.5t-250 -50.5t-204.5 -138t-138 -204.5t-50.5 -250zM479 733q0 101 27 184.5t79.5 143.5 t129 93.5t176.5 33.5q63 0 129 -16.5t125 -45.5l-62 -127q-52 26 -100.5 40t-91.5 14q-61 0 -108 -22t-79 -63.5t-48.5 -101.5t-16.5 -135q0 -78 14.5 -138t45 -101t78 -62.5t114.5 -21.5q23 0 50 3.5t55.5 9.5t56.5 14.5t53 17.5v-131q-24 -11 -48.5 -20t-51 -16 t-56.5 -10.5t-65 -3.5q-102 0 -178 33t-126.5 94t-76 146t-25.5 188z" />
<glyph unicode="&#xaa;" horiz-adv-x="678" d="M68 989q0 102 70.5 156t213.5 59l99 4v31q0 72 -30.5 100.5t-86.5 28.5q-48 0 -93 -14.5t-87 -36.5l-48 100q51 26 109.5 44t118.5 18q125 0 184.5 -53t59.5 -175v-454h-91l-28 82q-18 -22 -37.5 -39.5t-43 -30t-51.5 -19t-63 -6.5q-43 0 -79 13t-62 38.5t-40.5 64 t-14.5 89.5zM199 987q0 -51 25 -73.5t67 -22.5q34 0 63 10.5t50.5 32.5t34 54.5t12.5 76.5v49l-74 -4q-51 -3 -85 -12t-54.5 -24t-29.5 -36.5t-9 -50.5z" />
<glyph unicode="&#xab;" horiz-adv-x="997" d="M82 526v27l309 414l117 -78l-238 -348l238 -348l-117 -78zM489 526v27l310 414l116 -78l-237 -348l237 -348l-116 -78z" />
<glyph unicode="&#xac;" d="M102 647v150h924v-535h-149v385h-775z" />
<glyph unicode="&#xad;" horiz-adv-x="659" d="M119 552v142h683v-142h-683z" />
<glyph unicode="&#xae;" horiz-adv-x="1704" d="M100 731q0 104 27 200t75.5 179.5t117.5 152.5t152.5 117.5t179.5 75.5t200 27t200 -27t179.5 -75.5t152.5 -117.5t117.5 -152.5t75.5 -179.5t27 -200t-27 -200t-75.5 -179.5t-117.5 -152t-152.5 -117.5t-179.5 -75.5t-200 -26.5t-200 26.5t-179.5 75.5t-152.5 117.5 t-117.5 152t-75.5 179.5t-27 200zM209 731q0 -133 50.5 -250t138 -204.5t204.5 -138t250 -50.5t250 50.5t204.5 138t138 204.5t50.5 250t-50.5 250t-138 204.5t-204.5 138t-250 50.5t-250 -50.5t-204.5 -138t-138 -204.5t-50.5 -250zM586 285v893h233q168 0 247 -65t79 -200 q0 -48 -13.5 -85.5t-36 -66t-51 -48.5t-59.5 -33q67 -110 120 -197q23 -37 44 -72.5t37.5 -63.5t26.5 -45l10 -17h-179l-206 352h-95v-352h-157zM743 768h72q91 0 130.5 36t39.5 105q0 74 -41.5 103.5t-130.5 29.5h-70v-274z" />
<glyph unicode="&#xaf;" horiz-adv-x="1024" d="M-6 1556v140h1036v-140h-1036z" />
<glyph unicode="&#xb0;" horiz-adv-x="877" d="M123 1167q0 65 25 122.5t67.5 100.5t100 68t122.5 25t122.5 -25t100.5 -68t68 -100.5t25 -122.5t-25 -122t-68 -99.5t-100.5 -67t-122.5 -24.5t-122.5 24.5t-100 67t-67.5 99.5t-25 122zM246 1167q0 -39 15 -73.5t41 -60.5t61 -41t75 -15t75 15t61.5 41t41.5 60.5 t15 73.5q0 40 -15 75.5t-41.5 62t-61.5 42t-75 15.5t-75 -15.5t-61 -42t-41 -62t-15 -75.5z" />
<glyph unicode="&#xb1;" d="M102 0v150h924v-150h-924zM102 647v150h387v389h150v-389h387v-150h-387v-385h-150v385h-387z" />
<glyph unicode="&#xb2;" horiz-adv-x="678" d="M49 586v112l209 228q57 62 93 104.5t56 76t27.5 63t7.5 63.5q0 65 -33 97t-87 32q-51 0 -97.5 -25t-91.5 -63l-78 94q54 48 120.5 80.5t148.5 32.5q60 0 108.5 -16.5t82.5 -48t52.5 -77t18.5 -102.5q0 -50 -14.5 -93t-41.5 -85.5t-66.5 -88t-90.5 -100.5l-148 -157h396 v-127h-572z" />
<glyph unicode="&#xb3;" horiz-adv-x="678" d="M31 625v133q63 -34 129 -53t119 -19q98 0 142 41.5t44 114.5q0 74 -53.5 107.5t-149.5 33.5h-98v113h98q92 0 134 39.5t42 103.5q0 32 -10 55.5t-27.5 38.5t-41 22t-50.5 7q-59 0 -107.5 -20.5t-99.5 -57.5l-69 96q29 23 59.5 41.5t64.5 31.5t72 20.5t82 7.5 q69 0 121.5 -17t87.5 -47t52.5 -71.5t17.5 -90.5q0 -78 -40.5 -131t-109.5 -77q88 -23 132 -76t44 -131q0 -60 -20 -110t-61.5 -85.5t-104.5 -55.5t-149 -20q-70 0 -131.5 12.5t-118.5 43.5z" />
<glyph unicode="&#xb4;" horiz-adv-x="1182" d="M393 1241v27q22 29 45.5 67t47 78.5t44.5 81t37 74.5h219v-21q-16 -27 -47.5 -67.5t-70 -84.5t-79 -85.5t-75.5 -69.5h-121z" />
<glyph unicode="&#xb5;" horiz-adv-x="1217" d="M174 -492v1590h182v-707q0 -130 53 -195t164 -65q82 0 137 26t88.5 76.5t47.5 124.5t14 170v570h182v-1098h-147l-27 147h-10q-48 -83 -120 -125t-175 -42q-72 0 -125 23t-88 65q1 -38 3 -78q2 -35 2.5 -77.5t0.5 -84.5v-320h-182z" />
<glyph unicode="&#xb6;" horiz-adv-x="1341" d="M113 1042q0 147 32.5 245.5t92 158.5t142.5 85t183 25h563v-1816h-120v1657h-207v-1657h-121v819q-61 -18 -146 -18q-95 0 -172.5 25.5t-132 84.5t-84.5 155t-30 236z" />
<glyph unicode="&#xb7;" horiz-adv-x="549" d="M147 723q0 38 10 64.5t27 43t40 24t50 7.5q26 0 49.5 -7.5t40.5 -24t27 -43t10 -64.5q0 -37 -10 -63t-27 -43t-40.5 -25t-49.5 -8q-27 0 -50 8t-40 25t-27 43t-10 63z" />
<glyph unicode="&#xb8;" horiz-adv-x="420" d="M35 -375q15 -3 39.5 -4.5t40.5 -1.5q71 0 111 21.5t40 70.5q0 24 -13 41.5t-36 30.5t-54.5 22.5t-68.5 18.5l90 176h121l-57 -115q34 -8 63 -21t50.5 -33.5t34 -49.5t12.5 -68q0 -97 -70.5 -151t-220.5 -54q-22 0 -44.5 3t-37.5 6v108z" />
<glyph unicode="&#xb9;" horiz-adv-x="678" d="M63 1274l244 188h135v-876h-145v516q0 25 0.5 55t2 60t3 58t2.5 50q-14 -17 -33 -37t-41 -37l-94 -73z" />
<glyph unicode="&#xba;" horiz-adv-x="717" d="M66 1133q0 83 20.5 147.5t58.5 108.5t92.5 67t122.5 23q62 0 115.5 -23t92.5 -67t61 -108.5t22 -147.5t-20.5 -148t-59 -109.5t-93 -68t-122.5 -23.5q-63 0 -116 23.5t-92 68t-60.5 109.5t-21.5 148zM197 1133q0 -119 37.5 -179.5t123.5 -60.5q85 0 122.5 60.5 t37.5 179.5q0 120 -37.5 177.5t-122.5 57.5q-86 0 -123.5 -57.5t-37.5 -177.5z" />
<glyph unicode="&#xbb;" horiz-adv-x="997" d="M84 193l238 348l-238 348l117 78l309 -414v-27l-309 -411zM492 193l237 348l-237 348l116 78l310 -414v-27l-310 -411z" />
<glyph unicode="&#xbc;" horiz-adv-x="1509" d="M63 1274l244 188h135v-876h-145v516q0 25 0.5 55t2 60t3 58t2.5 50q-14 -17 -33 -37t-41 -37l-94 -73zM234 0l811 1462h157l-811 -1462h-157zM776 193v111l377 579h141v-563h125v-127h-125v-192h-143v192h-375zM922 320h229v195q0 42 1.5 91.5t4.5 98.5q-5 -11 -15 -29.5 t-21 -39.5t-23 -41l-21 -35z" />
<glyph unicode="&#xbd;" horiz-adv-x="1509" d="M44 1274l244 188h135v-876h-145v516q0 25 0.5 55t2 60t3 58t2.5 50q-14 -17 -33 -37t-41 -37l-94 -73zM213 0l811 1462h157l-811 -1462h-157zM868 1v112l209 228q57 62 93 104.5t56 76t27.5 63t7.5 63.5q0 65 -33 97t-87 32q-51 0 -97.5 -25t-91.5 -63l-78 94 q54 48 120.5 80.5t148.5 32.5q60 0 108.5 -16.5t82.5 -48t52.5 -77t18.5 -102.5q0 -50 -14.5 -93t-41.5 -85.5t-66.5 -88t-90.5 -100.5l-148 -157h396v-127h-572z" />
<glyph unicode="&#xbe;" horiz-adv-x="1509" d="M31 625v133q63 -34 129 -53t119 -19q98 0 142 41.5t44 114.5q0 74 -53.5 107.5t-149.5 33.5h-98v113h98q92 0 134 39.5t42 103.5q0 32 -10 55.5t-27.5 38.5t-41 22t-50.5 7q-59 0 -107.5 -20.5t-99.5 -57.5l-69 96q29 23 59.5 41.5t64.5 31.5t72 20.5t82 7.5 q69 0 121.5 -17t87.5 -47t52.5 -71.5t17.5 -90.5q0 -78 -40.5 -131t-109.5 -77q88 -23 132 -76t44 -131q0 -60 -20 -110t-61.5 -85.5t-104.5 -55.5t-149 -20q-70 0 -131.5 12.5t-118.5 43.5zM328 0l811 1462h157l-811 -1462h-157zM843 193v111l377 579h141v-563h125v-127 h-125v-192h-143v192h-375zM989 320h229v195q0 42 1.5 91.5t4.5 98.5q-5 -11 -15 -29.5t-21 -39.5t-23 -41l-21 -35z" />
<glyph unicode="&#xbf;" horiz-adv-x="872" d="M68 -20q0 68 13.5 120t40 97t67 87t94.5 89q52 45 85 78.5t52 64.5t26 64.5t7 76.5v19h139v-37q0 -58 -8 -103.5t-27.5 -86t-52 -78.5t-82.5 -80q-48 -41 -82 -74.5t-55.5 -68t-32 -74t-10.5 -92.5q0 -48 15 -87.5t43.5 -68t71 -44t97.5 -15.5q84 0 159 25.5t144 60.5 l64 -146q-82 -42 -176 -71t-191 -29q-93 0 -167.5 25.5t-126 73.5t-79.5 117t-28 157zM385 979q0 37 10 63t27.5 43t40.5 25t49 8q27 0 50 -8t40.5 -25t27 -43t9.5 -63q0 -38 -9.5 -64.5t-27 -43t-40.5 -24t-50 -7.5q-26 0 -49 7.5t-40.5 24t-27.5 43t-10 64.5z" />
<glyph unicode="&#xc0;" horiz-adv-x="1245" d="M0 0l537 1468h170l538 -1468h-190l-160 453h-545l-162 -453h-188zM327 1886v21h219q16 -34 37.5 -74.5t44.5 -81t47 -78.5t45 -67v-27h-120q-35 28 -76 69.5t-79.5 85.5t-70 84.5t-47.5 67.5zM410 618h426l-148 424q-6 18 -14.5 44t-17.5 56t-18 62.5t-17 63.5 q-7 -31 -16 -64t-18 -63.5t-17.5 -56t-14.5 -42.5z" />
<glyph unicode="&#xc1;" horiz-adv-x="1245" d="M0 0l537 1468h170l538 -1468h-190l-160 453h-545l-162 -453h-188zM410 618h426l-148 424q-6 18 -14.5 44t-17.5 56t-18 62.5t-17 63.5q-7 -31 -16 -64t-18 -63.5t-17.5 -56t-14.5 -42.5zM534 1579v27q22 29 45.5 67t47 78.5t44.5 81t37 74.5h219v-21q-16 -27 -47.5 -67.5 t-70 -84.5t-79 -85.5t-75.5 -69.5h-121z" />
<glyph unicode="&#xc2;" horiz-adv-x="1245" d="M0 0l537 1468h170l538 -1468h-190l-160 453h-545l-162 -453h-188zM289 1579v27q26 29 60 67t67.5 78.5t63 81t45.5 74.5h192q16 -34 45.5 -74.5t63 -81t68 -78.5t59.5 -67v-27h-121q-51 34 -105 82.5t-106 103.5q-54 -55 -107 -103.5t-104 -82.5h-121zM410 618h426 l-148 424q-6 18 -14.5 44t-17.5 56t-18 62.5t-17 63.5q-7 -31 -16 -64t-18 -63.5t-17.5 -56t-14.5 -42.5z" />
<glyph unicode="&#xc3;" horiz-adv-x="1245" d="M0 0l537 1468h170l538 -1468h-190l-160 453h-545l-162 -453h-188zM264 1579q5 60 21.5 109t43 83.5t63.5 53t83 18.5q42 0 82.5 -17.5t78.5 -38.5t72.5 -38.5t63.5 -17.5q45 0 68 26t38 88h105q-5 -60 -21.5 -108.5t-43 -83t-63.5 -53.5t-83 -19q-40 0 -79.5 17.5 t-77.5 39t-73 39t-67 17.5q-45 0 -69 -26.5t-38 -88.5h-104zM410 618h426l-148 424q-6 18 -14.5 44t-17.5 56t-18 62.5t-17 63.5q-7 -31 -16 -64t-18 -63.5t-17.5 -56t-14.5 -42.5z" />
<glyph unicode="&#xc4;" horiz-adv-x="1245" d="M0 0l537 1468h170l538 -1468h-190l-160 453h-545l-162 -453h-188zM340 1733q0 54 28 78t68 24q39 0 68 -24.5t29 -77.5t-29 -78t-68 -25q-40 0 -68 25t-28 78zM410 618h426l-148 424q-6 18 -14.5 44t-17.5 56t-18 62.5t-17 63.5q-7 -31 -16 -64t-18 -63.5t-17.5 -56 t-14.5 -42.5zM715 1733q0 54 28 78t68 24q19 0 36.5 -6t30.5 -18.5t21 -31.5t8 -46q0 -53 -29 -78t-67 -25q-40 0 -68 25t-28 78z" />
<glyph unicode="&#xc5;" horiz-adv-x="1245" d="M0 0l537 1468h170l538 -1468h-190l-160 453h-545l-162 -453h-188zM396 1581q0 51 16 90.5t45.5 67.5t70.5 42.5t91 14.5q48 0 90 -14.5t73 -42t48.5 -67t17.5 -89.5q0 -51 -17.5 -91.5t-48 -68.5t-72.5 -42.5t-91 -14.5q-50 0 -91 14.5t-70.5 42.5t-45.5 67.5t-16 90.5z M410 618h426l-148 424q-6 18 -14.5 44t-17.5 56t-18 62.5t-17 63.5q-7 -31 -16 -64t-18 -63.5t-17.5 -56t-14.5 -42.5zM506 1581q0 -53 28.5 -83t84.5 -30q49 0 80.5 30t31.5 83t-31.5 83t-80.5 30q-50 0 -81.5 -30t-31.5 -83z" />
<glyph unicode="&#xc6;" horiz-adv-x="1745" d="M-2 0l655 1462h969v-164h-573v-452h534v-162h-534v-520h573v-164h-760v453h-475l-203 -453h-186zM459 618h403v680h-108z" />
<glyph unicode="&#xc7;" horiz-adv-x="1235" d="M125 733q0 166 43.5 304t128 237t209.5 154t287 55q108 0 206 -22t177 -64l-78 -156q-63 32 -137 55t-168 23q-107 0 -194 -40.5t-148.5 -116.5t-95 -185t-33.5 -246q0 -141 29.5 -250.5t88.5 -184.5t147 -114t206 -39q89 0 169 17.5t158 40.5v-162q-39 -15 -78 -26.5 t-81.5 -18.5t-91 -10.5t-107.5 -3.5q-164 0 -284 54t-198.5 153t-116.5 238t-38 308zM543 -375q15 -3 39.5 -4.5t40.5 -1.5q71 0 111 21.5t40 70.5q0 24 -13 41.5t-36 30.5t-54.5 22.5t-68.5 18.5l90 176h121l-57 -115q34 -8 63 -21t50.5 -33.5t34 -49.5t12.5 -68 q0 -97 -70.5 -151t-220.5 -54q-22 0 -44.5 3t-37.5 6v108z" />
<glyph unicode="&#xc8;" horiz-adv-x="1081" d="M199 0v1462h759v-164h-573v-452h535v-162h-535v-520h573v-164h-759zM321 1886v21h219q16 -34 37.5 -74.5t44.5 -81t47 -78.5t45 -67v-27h-120q-35 28 -76 69.5t-79.5 85.5t-70 84.5t-47.5 67.5z" />
<glyph unicode="&#xc9;" horiz-adv-x="1081" d="M199 0v1462h759v-164h-573v-452h535v-162h-535v-520h573v-164h-759zM456 1579v27q22 29 45.5 67t47 78.5t44.5 81t37 74.5h219v-21q-16 -27 -47.5 -67.5t-70 -84.5t-79 -85.5t-75.5 -69.5h-121z" />
<glyph unicode="&#xca;" horiz-adv-x="1081" d="M199 0v1462h759v-164h-573v-452h535v-162h-535v-520h573v-164h-759zM244 1579v27q26 29 60 67t67.5 78.5t63 81t45.5 74.5h192q16 -34 45.5 -74.5t63 -81t68 -78.5t59.5 -67v-27h-121q-51 34 -105 82.5t-106 103.5q-54 -55 -107 -103.5t-104 -82.5h-121z" />
<glyph unicode="&#xcb;" horiz-adv-x="1081" d="M199 0v1462h759v-164h-573v-452h535v-162h-535v-520h573v-164h-759zM297 1733q0 54 28 78t68 24q39 0 68 -24.5t29 -77.5t-29 -78t-68 -25q-40 0 -68 25t-28 78zM672 1733q0 54 28 78t68 24q19 0 36.5 -6t30.5 -18.5t21 -31.5t8 -46q0 -53 -29 -78t-67 -25q-40 0 -68 25 t-28 78z" />
<glyph unicode="&#xcc;" horiz-adv-x="694" d="M63 1886v21h219q16 -34 37.5 -74.5t44.5 -81t47 -78.5t45 -67v-27h-120q-35 28 -76 69.5t-79.5 85.5t-70 84.5t-47.5 67.5zM82 0v102l172 41v1176l-172 41v102h530v-102l-172 -41v-1176l172 -41v-102h-530z" />
<glyph unicode="&#xcd;" horiz-adv-x="694" d="M82 0v102l172 41v1176l-172 41v102h530v-102l-172 -41v-1176l172 -41v-102h-530zM258 1579v27q22 29 45.5 67t47 78.5t44.5 81t37 74.5h219v-21q-16 -27 -47.5 -67.5t-70 -84.5t-79 -85.5t-75.5 -69.5h-121z" />
<glyph unicode="&#xce;" horiz-adv-x="694" d="M18 1579v27q26 29 60 67t67.5 78.5t63 81t45.5 74.5h192q16 -34 45.5 -74.5t63 -81t68 -78.5t59.5 -67v-27h-121q-51 34 -105 82.5t-106 103.5q-54 -55 -107 -103.5t-104 -82.5h-121zM82 0v102l172 41v1176l-172 41v102h530v-102l-172 -41v-1176l172 -41v-102h-530z" />
<glyph unicode="&#xcf;" horiz-adv-x="694" d="M65 1733q0 54 28 78t68 24q39 0 68 -24.5t29 -77.5t-29 -78t-68 -25q-40 0 -68 25t-28 78zM82 0v102l172 41v1176l-172 41v102h530v-102l-172 -41v-1176l172 -41v-102h-530zM440 1733q0 54 28 78t68 24q19 0 36.5 -6t30.5 -18.5t21 -31.5t8 -46q0 -53 -29 -78t-67 -25 q-40 0 -68 25t-28 78z" />
<glyph unicode="&#xd0;" horiz-adv-x="1401" d="M47 643v162h152v657h407q153 0 277 -46t211 -136.5t134.5 -224.5t47.5 -310q0 -185 -48 -324.5t-139 -233t-223.5 -140.5t-300.5 -47h-366v643h-152zM385 160h162q264 0 398 146t134 433q0 146 -33 252.5t-96 175.5t-155 102.5t-209 33.5h-201v-498h336v-162h-336v-483z " />
<glyph unicode="&#xd1;" horiz-adv-x="1493" d="M199 0v1462h213l716 -1204h7q-3 76 -7 150q-1 32 -2.5 65.5l-3 67t-2 64.5t-0.5 57v800h174v-1462h-215l-719 1210h-8q6 -77 10 -153q4 -65 6.5 -136t2.5 -128v-793h-172zM397 1579q5 60 21.5 109t43 83.5t63.5 53t83 18.5q42 0 82.5 -17.5t78.5 -38.5t72.5 -38.5 t63.5 -17.5q45 0 68 26t38 88h105q-5 -60 -21.5 -108.5t-43 -83t-63.5 -53.5t-83 -19q-40 0 -79.5 17.5t-77.5 39t-73 39t-67 17.5q-45 0 -69 -26.5t-38 -88.5h-104z" />
<glyph unicode="&#xd2;" horiz-adv-x="1520" d="M125 735q0 170 38 308.5t117 236.5t199 151.5t283 53.5q155 0 272.5 -53.5t197.5 -152t120.5 -237t40.5 -309.5q0 -169 -40.5 -308t-120.5 -238t-198.5 -153t-273.5 -54q-163 0 -282.5 54t-198 153t-116.5 238.5t-38 309.5zM322 733q0 -137 26 -246.5t79.5 -186t136 -117 t196.5 -40.5t196.5 40.5t136 117t78.5 186t25 246.5q0 138 -25 247t-78 184.5t-135 116t-196 40.5t-197 -40.5t-137 -116t-80 -184.5t-26 -247zM477 1886v21h219q16 -34 37.5 -74.5t44.5 -81t47 -78.5t45 -67v-27h-120q-35 28 -76 69.5t-79.5 85.5t-70 84.5t-47.5 67.5z" />
<glyph unicode="&#xd3;" horiz-adv-x="1520" d="M125 735q0 170 38 308.5t117 236.5t199 151.5t283 53.5q155 0 272.5 -53.5t197.5 -152t120.5 -237t40.5 -309.5q0 -169 -40.5 -308t-120.5 -238t-198.5 -153t-273.5 -54q-163 0 -282.5 54t-198 153t-116.5 238.5t-38 309.5zM322 733q0 -137 26 -246.5t79.5 -186t136 -117 t196.5 -40.5t196.5 40.5t136 117t78.5 186t25 246.5q0 138 -25 247t-78 184.5t-135 116t-196 40.5t-197 -40.5t-137 -116t-80 -184.5t-26 -247zM651 1579v27q22 29 45.5 67t47 78.5t44.5 81t37 74.5h219v-21q-16 -27 -47.5 -67.5t-70 -84.5t-79 -85.5t-75.5 -69.5h-121z" />
<glyph unicode="&#xd4;" horiz-adv-x="1520" d="M125 735q0 170 38 308.5t117 236.5t199 151.5t283 53.5q155 0 272.5 -53.5t197.5 -152t120.5 -237t40.5 -309.5q0 -169 -40.5 -308t-120.5 -238t-198.5 -153t-273.5 -54q-163 0 -282.5 54t-198 153t-116.5 238.5t-38 309.5zM322 733q0 -137 26 -246.5t79.5 -186t136 -117 t196.5 -40.5t196.5 40.5t136 117t78.5 186t25 246.5q0 138 -25 247t-78 184.5t-135 116t-196 40.5t-197 -40.5t-137 -116t-80 -184.5t-26 -247zM432 1579v27q26 29 60 67t67.5 78.5t63 81t45.5 74.5h192q16 -34 45.5 -74.5t63 -81t68 -78.5t59.5 -67v-27h-121 q-51 34 -105 82.5t-106 103.5q-54 -55 -107 -103.5t-104 -82.5h-121z" />
<glyph unicode="&#xd5;" horiz-adv-x="1520" d="M125 735q0 170 38 308.5t117 236.5t199 151.5t283 53.5q155 0 272.5 -53.5t197.5 -152t120.5 -237t40.5 -309.5q0 -169 -40.5 -308t-120.5 -238t-198.5 -153t-273.5 -54q-163 0 -282.5 54t-198 153t-116.5 238.5t-38 309.5zM322 733q0 -137 26 -246.5t79.5 -186t136 -117 t196.5 -40.5t196.5 40.5t136 117t78.5 186t25 246.5q0 138 -25 247t-78 184.5t-135 116t-196 40.5t-197 -40.5t-137 -116t-80 -184.5t-26 -247zM383 1579q5 60 21.5 109t43 83.5t63.5 53t83 18.5q42 0 82.5 -17.5t78.5 -38.5t72.5 -38.5t63.5 -17.5q45 0 68 26t38 88h105 q-5 -60 -21.5 -108.5t-43 -83t-63.5 -53.5t-83 -19q-40 0 -79.5 17.5t-77.5 39t-73 39t-67 17.5q-45 0 -69 -26.5t-38 -88.5h-104z" />
<glyph unicode="&#xd6;" horiz-adv-x="1520" d="M125 735q0 170 38 308.5t117 236.5t199 151.5t283 53.5q155 0 272.5 -53.5t197.5 -152t120.5 -237t40.5 -309.5q0 -169 -40.5 -308t-120.5 -238t-198.5 -153t-273.5 -54q-163 0 -282.5 54t-198 153t-116.5 238.5t-38 309.5zM322 733q0 -137 26 -246.5t79.5 -186t136 -117 t196.5 -40.5t196.5 40.5t136 117t78.5 186t25 246.5q0 138 -25 247t-78 184.5t-135 116t-196 40.5t-197 -40.5t-137 -116t-80 -184.5t-26 -247zM477 1733q0 54 28 78t68 24q39 0 68 -24.5t29 -77.5t-29 -78t-68 -25q-40 0 -68 25t-28 78zM852 1733q0 54 28 78t68 24 q19 0 36.5 -6t30.5 -18.5t21 -31.5t8 -46q0 -53 -29 -78t-67 -25q-40 0 -68 25t-28 78z" />
<glyph unicode="&#xd7;" d="M141 1042l105 105l317 -318l322 318l104 -103l-321 -321l319 -320l-102 -102l-322 317l-317 -315l-103 103l316 317z" />
<glyph unicode="&#xd8;" horiz-adv-x="1520" d="M125 735q0 170 38 308.5t117 236.5t199 151.5t283 53.5q94 0 174.5 -21t146.5 -59l80 127l137 -78l-92 -149q91 -99 138 -244t47 -328q0 -169 -40.5 -308t-120.5 -238t-198.5 -153t-273.5 -54q-189 0 -322 71l-78 -127l-137 78l90 145q-97 100 -142.5 249t-45.5 339z M322 733q0 -131 23 -235.5t71 -182.5l579 945q-48 29 -105 45t-128 16q-114 0 -197 -40.5t-137 -116t-80 -184.5t-26 -247zM530 201q47 -28 104 -43t126 -15q114 0 196.5 40.5t136 117t78.5 186t25 246.5q0 257 -88 408z" />
<glyph unicode="&#xd9;" horiz-adv-x="1430" d="M184 520v942h187v-952q0 -175 86.5 -271t261.5 -96q89 0 153 27t105 76t61 117t21 149v952h186v-948q0 -114 -33 -212t-99.5 -170t-167 -113t-236.5 -41q-128 0 -226 38.5t-164.5 109.5t-100.5 170.5t-34 221.5zM454 1886v21h219q16 -34 37.5 -74.5t44.5 -81t47 -78.5 t45 -67v-27h-120q-35 28 -76 69.5t-79.5 85.5t-70 84.5t-47.5 67.5z" />
<glyph unicode="&#xda;" horiz-adv-x="1430" d="M184 520v942h187v-952q0 -175 86.5 -271t261.5 -96q89 0 153 27t105 76t61 117t21 149v952h186v-948q0 -114 -33 -212t-99.5 -170t-167 -113t-236.5 -41q-128 0 -226 38.5t-164.5 109.5t-100.5 170.5t-34 221.5zM590 1579v27q22 29 45.5 67t47 78.5t44.5 81t37 74.5h219 v-21q-16 -27 -47.5 -67.5t-70 -84.5t-79 -85.5t-75.5 -69.5h-121z" />
<glyph unicode="&#xdb;" horiz-adv-x="1430" d="M184 520v942h187v-952q0 -175 86.5 -271t261.5 -96q89 0 153 27t105 76t61 117t21 149v952h186v-948q0 -114 -33 -212t-99.5 -170t-167 -113t-236.5 -41q-128 0 -226 38.5t-164.5 109.5t-100.5 170.5t-34 221.5zM379 1579v27q26 29 60 67t67.5 78.5t63 81t45.5 74.5h192 q16 -34 45.5 -74.5t63 -81t68 -78.5t59.5 -67v-27h-121q-51 34 -105 82.5t-106 103.5q-54 -55 -107 -103.5t-104 -82.5h-121z" />
<glyph unicode="&#xdc;" horiz-adv-x="1430" d="M184 520v942h187v-952q0 -175 86.5 -271t261.5 -96q89 0 153 27t105 76t61 117t21 149v952h186v-948q0 -114 -33 -212t-99.5 -170t-167 -113t-236.5 -41q-128 0 -226 38.5t-164.5 109.5t-100.5 170.5t-34 221.5zM432 1733q0 54 28 78t68 24q39 0 68 -24.5t29 -77.5 t-29 -78t-68 -25q-40 0 -68 25t-28 78zM807 1733q0 54 28 78t68 24q19 0 36.5 -6t30.5 -18.5t21 -31.5t8 -46q0 -53 -29 -78t-67 -25q-40 0 -68 25t-28 78z" />
<glyph unicode="&#xdd;" horiz-adv-x="1079" d="M0 1462h203l336 -739l340 739h200l-446 -893v-569h-187v559zM442 1579v27q22 29 45.5 67t47 78.5t44.5 81t37 74.5h219v-21q-16 -27 -47.5 -67.5t-70 -84.5t-79 -85.5t-75.5 -69.5h-121z" />
<glyph unicode="&#xde;" horiz-adv-x="1180" d="M199 0v1462h186v-252h176q134 0 231 -28.5t160 -83t93 -134.5t30 -182q0 -91 -27.5 -175t-90.5 -148.5t-166.5 -103t-255.5 -38.5h-150v-317h-186zM385 475h129q93 0 162.5 16t115 51.5t68.5 92t23 137.5q0 143 -82 211t-256 68h-160v-576z" />
<glyph unicode="&#xdf;" horiz-adv-x="1233" d="M174 0v1200q0 104 31.5 174.5t88 113t134.5 61t170 18.5t168 -19t130 -57t84 -96t30 -135q0 -57 -21.5 -101.5t-53 -81t-69 -66.5t-69 -57.5t-53 -54.5t-21.5 -57q0 -21 7 -37.5t26.5 -36t54.5 -44t92 -62.5q56 -37 100 -73t74.5 -77t47 -89t16.5 -110q0 -87 -28 -150 t-78.5 -103.5t-121 -60t-155.5 -19.5q-97 0 -166.5 17.5t-122.5 51.5v166q26 -16 58.5 -31.5t68.5 -27.5t74 -19.5t75 -7.5q56 0 96.5 12.5t66.5 35t38 54.5t12 72q0 36 -8.5 65.5t-30 57.5t-57.5 57t-92 64q-63 40 -105.5 74t-69 67.5t-37.5 68.5t-11 77q0 54 20.5 93.5 t51.5 71t67 58.5t67 56t51.5 62.5t20.5 77.5q0 42 -16.5 73t-46.5 51.5t-71.5 30t-92.5 9.5q-49 0 -93 -9.5t-77 -33.5t-52.5 -65.5t-19.5 -106.5v-1202h-182z" />
<glyph unicode="&#xe0;" horiz-adv-x="1087" d="M94 307q0 164 115.5 252t351.5 96l184 7v69q0 67 -14.5 112t-42 72.5t-68 39.5t-92.5 12q-83 0 -154.5 -24t-137.5 -58l-64 137q74 40 165 68t191 28q102 0 176.5 -20.5t123 -65t72.5 -113.5t24 -167v-752h-131l-37 152h-8q-33 -45 -66 -77.5t-72 -53.5t-87 -31t-111 -10 q-69 0 -127 19.5t-100.5 60t-66.5 102t-24 145.5zM283 305q0 -92 48.5 -135t127.5 -43q61 0 113 19t90 57.5t59.5 97t21.5 137.5v99l-143 -7q-90 -4 -151 -20t-97.5 -44.5t-52.5 -69t-16 -91.5zM286 1548v21h219q16 -34 37.5 -74.5t44.5 -81t47 -78.5t45 -67v-27h-120 q-35 28 -76 69.5t-79.5 85.5t-70 84.5t-47.5 67.5z" />
<glyph unicode="&#xe1;" horiz-adv-x="1087" d="M94 307q0 164 115.5 252t351.5 96l184 7v69q0 67 -14.5 112t-42 72.5t-68 39.5t-92.5 12q-83 0 -154.5 -24t-137.5 -58l-64 137q74 40 165 68t191 28q102 0 176.5 -20.5t123 -65t72.5 -113.5t24 -167v-752h-131l-37 152h-8q-33 -45 -66 -77.5t-72 -53.5t-87 -31t-111 -10 q-69 0 -127 19.5t-100.5 60t-66.5 102t-24 145.5zM283 305q0 -92 48.5 -135t127.5 -43q61 0 113 19t90 57.5t59.5 97t21.5 137.5v99l-143 -7q-90 -4 -151 -20t-97.5 -44.5t-52.5 -69t-16 -91.5zM446 1241v27q22 29 45.5 67t47 78.5t44.5 81t37 74.5h219v-21 q-16 -27 -47.5 -67.5t-70 -84.5t-79 -85.5t-75.5 -69.5h-121z" />
<glyph unicode="&#xe2;" horiz-adv-x="1087" d="M94 307q0 164 115.5 252t351.5 96l184 7v69q0 67 -14.5 112t-42 72.5t-68 39.5t-92.5 12q-83 0 -154.5 -24t-137.5 -58l-64 137q74 40 165 68t191 28q102 0 176.5 -20.5t123 -65t72.5 -113.5t24 -167v-752h-131l-37 152h-8q-33 -45 -66 -77.5t-72 -53.5t-87 -31t-111 -10 q-69 0 -127 19.5t-100.5 60t-66.5 102t-24 145.5zM229 1241v27q26 29 60 67t67.5 78.5t63 81t45.5 74.5h192q16 -34 45.5 -74.5t63 -81t68 -78.5t59.5 -67v-27h-121q-51 34 -105 82.5t-106 103.5q-54 -55 -107 -103.5t-104 -82.5h-121zM283 305q0 -92 48.5 -135t127.5 -43 q61 0 113 19t90 57.5t59.5 97t21.5 137.5v99l-143 -7q-90 -4 -151 -20t-97.5 -44.5t-52.5 -69t-16 -91.5z" />
<glyph unicode="&#xe3;" horiz-adv-x="1087" d="M94 307q0 164 115.5 252t351.5 96l184 7v69q0 67 -14.5 112t-42 72.5t-68 39.5t-92.5 12q-83 0 -154.5 -24t-137.5 -58l-64 137q74 40 165 68t191 28q102 0 176.5 -20.5t123 -65t72.5 -113.5t24 -167v-752h-131l-37 152h-8q-33 -45 -66 -77.5t-72 -53.5t-87 -31t-111 -10 q-69 0 -127 19.5t-100.5 60t-66.5 102t-24 145.5zM192 1241q5 60 21.5 109t43 83.5t63.5 53t83 18.5q42 0 82.5 -17.5t78.5 -38.5t72.5 -38.5t63.5 -17.5q45 0 68 26t38 88h105q-5 -60 -21.5 -108.5t-43 -83t-63.5 -53.5t-83 -19q-40 0 -79.5 17.5t-77.5 39t-73 39t-67 17.5 q-45 0 -69 -26.5t-38 -88.5h-104zM283 305q0 -92 48.5 -135t127.5 -43q61 0 113 19t90 57.5t59.5 97t21.5 137.5v99l-143 -7q-90 -4 -151 -20t-97.5 -44.5t-52.5 -69t-16 -91.5z" />
<glyph unicode="&#xe4;" horiz-adv-x="1087" d="M94 307q0 164 115.5 252t351.5 96l184 7v69q0 67 -14.5 112t-42 72.5t-68 39.5t-92.5 12q-83 0 -154.5 -24t-137.5 -58l-64 137q74 40 165 68t191 28q102 0 176.5 -20.5t123 -65t72.5 -113.5t24 -167v-752h-131l-37 152h-8q-33 -45 -66 -77.5t-72 -53.5t-87 -31t-111 -10 q-69 0 -127 19.5t-100.5 60t-66.5 102t-24 145.5zM274 1395q0 54 28 78t68 24q39 0 68 -24.5t29 -77.5t-29 -78t-68 -25q-40 0 -68 25t-28 78zM283 305q0 -92 48.5 -135t127.5 -43q61 0 113 19t90 57.5t59.5 97t21.5 137.5v99l-143 -7q-90 -4 -151 -20t-97.5 -44.5 t-52.5 -69t-16 -91.5zM649 1395q0 54 28 78t68 24q19 0 36.5 -6t30.5 -18.5t21 -31.5t8 -46q0 -53 -29 -78t-67 -25q-40 0 -68 25t-28 78z" />
<glyph unicode="&#xe5;" horiz-adv-x="1087" d="M94 307q0 164 115.5 252t351.5 96l184 7v69q0 67 -14.5 112t-42 72.5t-68 39.5t-92.5 12q-83 0 -154.5 -24t-137.5 -58l-64 137q74 40 165 68t191 28q102 0 176.5 -20.5t123 -65t72.5 -113.5t24 -167v-752h-131l-37 152h-8q-33 -45 -66 -77.5t-72 -53.5t-87 -31t-111 -10 q-69 0 -127 19.5t-100.5 60t-66.5 102t-24 145.5zM283 305q0 -92 48.5 -135t127.5 -43q61 0 113 19t90 57.5t59.5 97t21.5 137.5v99l-143 -7q-90 -4 -151 -20t-97.5 -44.5t-52.5 -69t-16 -91.5zM331 1456q0 51 16 90.5t45.5 67.5t70.5 42.5t91 14.5q48 0 90 -14.5t73 -42 t48.5 -67t17.5 -89.5q0 -51 -17.5 -91.5t-48 -68.5t-72.5 -42.5t-91 -14.5q-50 0 -91 14.5t-70.5 42.5t-45.5 67.5t-16 90.5zM441 1456q0 -53 28.5 -83t84.5 -30q49 0 80.5 30t31.5 83t-31.5 83t-80.5 30q-50 0 -81.5 -30t-31.5 -83z" />
<glyph unicode="&#xe6;" horiz-adv-x="1706" d="M94 307q0 164 115.5 252t351.5 96l184 7v69q0 67 -14.5 112t-42 72.5t-68 39.5t-92.5 12q-83 0 -154.5 -24t-137.5 -58l-64 137q74 40 165 68t191 28q131 0 214 -42.5t126 -135.5q51 85 134 131.5t186 46.5q97 0 174 -35.5t131 -100t82.5 -155t28.5 -200.5v-113h-672 q5 -193 78.5 -284t220.5 -91q49 0 91.5 5t81.5 14.5t76 24t74 32.5v-162q-39 -19 -76.5 -33t-77 -23t-82 -13t-91.5 -4q-138 0 -239 57t-163 172q-34 -54 -72 -96.5t-85.5 -72t-105.5 -45t-132 -15.5q-71 0 -132.5 19.5t-106.5 60t-71 102t-26 145.5zM283 305 q0 -92 48.5 -135t127.5 -43q61 0 113 19t90 57.5t59.5 97t21.5 137.5v99l-143 -7q-90 -4 -151 -20t-97.5 -44.5t-52.5 -69t-16 -91.5zM936 662h471q0 68 -13 124.5t-40.5 96.5t-69.5 62t-100 22q-110 0 -173.5 -78t-74.5 -227z" />
<glyph unicode="&#xe7;" horiz-adv-x="948" d="M113 543q0 157 38 266.5t104.5 178t155.5 99.5t191 31q78 0 152.5 -17t124.5 -42l-54 -154q-23 10 -51 19.5t-58 17t-59 12t-55 4.5q-157 0 -229 -100.5t-72 -312.5q0 -211 72.5 -308.5t220.5 -97.5q81 0 146.5 18.5t119.5 43.5v-162q-54 -29 -115.5 -44t-150.5 -15 q-101 0 -189 31.5t-153 100t-102 175t-37 256.5zM357 -375q15 -3 39.5 -4.5t40.5 -1.5q71 0 111 21.5t40 70.5q0 24 -13 41.5t-36 30.5t-54.5 22.5t-68.5 18.5l90 176h121l-57 -115q34 -8 63 -21t50.5 -33.5t34 -49.5t12.5 -68q0 -97 -70.5 -151t-220.5 -54q-22 0 -44.5 3 t-37.5 6v108z" />
<glyph unicode="&#xe8;" horiz-adv-x="1096" d="M113 541q0 136 33 243t93 181.5t143.5 113.5t184.5 39q99 0 178 -35.5t134 -100t84.5 -155t29.5 -200.5v-113h-692q5 -193 81.5 -284t227.5 -91q51 0 94.5 5t84 14.5t78.5 24t77 32.5v-162q-40 -19 -78.5 -33t-79 -23t-84 -13t-94.5 -4q-110 0 -201 37t-156.5 108 t-101.5 176t-36 240zM286 1548v21h219q16 -34 37.5 -74.5t44.5 -81t47 -78.5t45 -67v-27h-120q-35 28 -76 69.5t-79.5 85.5t-70 84.5t-47.5 67.5zM305 662h492q0 68 -13.5 124.5t-42 96.5t-72.5 62t-106 22q-114 0 -180.5 -78t-77.5 -227z" />
<glyph unicode="&#xe9;" horiz-adv-x="1096" d="M113 541q0 136 33 243t93 181.5t143.5 113.5t184.5 39q99 0 178 -35.5t134 -100t84.5 -155t29.5 -200.5v-113h-692q5 -193 81.5 -284t227.5 -91q51 0 94.5 5t84 14.5t78.5 24t77 32.5v-162q-40 -19 -78.5 -33t-79 -23t-84 -13t-94.5 -4q-110 0 -201 37t-156.5 108 t-101.5 176t-36 240zM305 662h492q0 68 -13.5 124.5t-42 96.5t-72.5 62t-106 22q-114 0 -180.5 -78t-77.5 -227zM475 1241v27q22 29 45.5 67t47 78.5t44.5 81t37 74.5h219v-21q-16 -27 -47.5 -67.5t-70 -84.5t-79 -85.5t-75.5 -69.5h-121z" />
<glyph unicode="&#xea;" horiz-adv-x="1096" d="M113 541q0 136 33 243t93 181.5t143.5 113.5t184.5 39q99 0 178 -35.5t134 -100t84.5 -155t29.5 -200.5v-113h-692q5 -193 81.5 -284t227.5 -91q51 0 94.5 5t84 14.5t78.5 24t77 32.5v-162q-40 -19 -78.5 -33t-79 -23t-84 -13t-94.5 -4q-110 0 -201 37t-156.5 108 t-101.5 176t-36 240zM225 1241v27q26 29 60 67t67.5 78.5t63 81t45.5 74.5h192q16 -34 45.5 -74.5t63 -81t68 -78.5t59.5 -67v-27h-121q-51 34 -105 82.5t-106 103.5q-54 -55 -107 -103.5t-104 -82.5h-121zM305 662h492q0 68 -13.5 124.5t-42 96.5t-72.5 62t-106 22 q-114 0 -180.5 -78t-77.5 -227z" />
<glyph unicode="&#xeb;" horiz-adv-x="1096" d="M113 541q0 136 33 243t93 181.5t143.5 113.5t184.5 39q99 0 178 -35.5t134 -100t84.5 -155t29.5 -200.5v-113h-692q5 -193 81.5 -284t227.5 -91q51 0 94.5 5t84 14.5t78.5 24t77 32.5v-162q-40 -19 -78.5 -33t-79 -23t-84 -13t-94.5 -4q-110 0 -201 37t-156.5 108 t-101.5 176t-36 240zM270 1395q0 54 28 78t68 24q39 0 68 -24.5t29 -77.5t-29 -78t-68 -25q-40 0 -68 25t-28 78zM305 662h492q0 68 -13.5 124.5t-42 96.5t-72.5 62t-106 22q-114 0 -180.5 -78t-77.5 -227zM645 1395q0 54 28 78t68 24q19 0 36.5 -6t30.5 -18.5t21 -31.5 t8 -46q0 -53 -29 -78t-67 -25q-40 0 -68 25t-28 78z" />
<glyph unicode="&#xec;" horiz-adv-x="530" d="M-34 1548v21h219q16 -34 37.5 -74.5t44.5 -81t47 -78.5t45 -67v-27h-120q-35 28 -76 69.5t-79.5 85.5t-70 84.5t-47.5 67.5zM174 0v1098h182v-1098h-182z" />
<glyph unicode="&#xed;" horiz-adv-x="530" d="M174 0v1098h182v-1098h-182zM185 1241v27q22 29 45.5 67t47 78.5t44.5 81t37 74.5h219v-21q-16 -27 -47.5 -67.5t-70 -84.5t-79 -85.5t-75.5 -69.5h-121z" />
<glyph unicode="&#xee;" horiz-adv-x="530" d="M-67 1241v27q26 29 60 67t67.5 78.5t63 81t45.5 74.5h192q16 -34 45.5 -74.5t63 -81t68 -78.5t59.5 -67v-27h-121q-51 34 -105 82.5t-106 103.5q-54 -55 -107 -103.5t-104 -82.5h-121zM174 0v1098h182v-1098h-182z" />
<glyph unicode="&#xef;" horiz-adv-x="530" d="M-18 1395q0 54 28 78t68 24q39 0 68 -24.5t29 -77.5t-29 -78t-68 -25q-40 0 -68 25t-28 78zM174 0v1098h182v-1098h-182zM357 1395q0 54 28 78t68 24q19 0 36.5 -6t30.5 -18.5t21 -31.5t8 -46q0 -53 -29 -78t-67 -25q-40 0 -68 25t-28 78z" />
<glyph unicode="&#xf0;" horiz-adv-x="1182" d="M111 477q0 119 31.5 211t90.5 155t143 95.5t189 32.5q102 0 179 -29.5t120 -89.5l8 4q-31 118 -91 214t-150 177l-256 -153l-74 114l217 131q-40 28 -82.5 55.5t-89.5 53.5l70 123q65 -32 126 -68t120 -80l227 138l74 -113l-195 -117q67 -65 122.5 -143t95 -171.5 t61.5 -204t22 -239.5q0 -142 -33.5 -252t-96 -186t-151.5 -115.5t-200 -39.5q-104 0 -191.5 33t-151 96.5t-99 156t-35.5 211.5zM303 471q0 -76 16.5 -138.5t52 -107.5t90 -69.5t130.5 -24.5q154 0 221.5 99.5t67.5 295.5q0 56 -17 109.5t-52 94.5t-90 66t-130 25 q-77 0 -131.5 -23t-89.5 -67t-51.5 -109.5t-16.5 -150.5z" />
<glyph unicode="&#xf1;" horiz-adv-x="1206" d="M174 0v1098h148l26 -148h10q25 43 59.5 74.5t75.5 52.5t87 31t94 10q183 0 275.5 -95.5t92.5 -305.5v-717h-182v707q0 130 -52.5 195t-164.5 65q-81 0 -136 -26t-88.5 -77t-48 -125t-14.5 -170v-569h-182zM252 1241q5 60 21.5 109t43 83.5t63.5 53t83 18.5 q42 0 82.5 -17.5t78.5 -38.5t72.5 -38.5t63.5 -17.5q45 0 68 26t38 88h105q-5 -60 -21.5 -108.5t-43 -83t-63.5 -53.5t-83 -19q-40 0 -79.5 17.5t-77.5 39t-73 39t-67 17.5q-45 0 -69 -26.5t-38 -88.5h-104z" />
<glyph unicode="&#xf2;" horiz-adv-x="1182" d="M113 551q0 136 33.5 241.5t95.5 178t151.5 110t200.5 37.5q103 0 190 -37.5t150.5 -110t99 -178t35.5 -241.5q0 -137 -33.5 -243.5t-96 -179t-151.5 -110.5t-200 -38q-103 0 -190 38t-150.5 110.5t-99 179t-35.5 243.5zM301 551q0 -209 68.5 -314.5t222.5 -105.5 t221.5 105.5t67.5 314.5t-68.5 312.5t-222.5 103.5t-221.5 -103.5t-67.5 -312.5zM354 1548v21h219q16 -34 37.5 -74.5t44.5 -81t47 -78.5t45 -67v-27h-120q-35 28 -76 69.5t-79.5 85.5t-70 84.5t-47.5 67.5z" />
<glyph unicode="&#xf3;" horiz-adv-x="1182" d="M113 551q0 136 33.5 241.5t95.5 178t151.5 110t200.5 37.5q103 0 190 -37.5t150.5 -110t99 -178t35.5 -241.5q0 -137 -33.5 -243.5t-96 -179t-151.5 -110.5t-200 -38q-103 0 -190 38t-150.5 110.5t-99 179t-35.5 243.5zM301 551q0 -209 68.5 -314.5t222.5 -105.5 t221.5 105.5t67.5 314.5t-68.5 312.5t-222.5 103.5t-221.5 -103.5t-67.5 -312.5zM473 1241v27q22 29 45.5 67t47 78.5t44.5 81t37 74.5h219v-21q-16 -27 -47.5 -67.5t-70 -84.5t-79 -85.5t-75.5 -69.5h-121z" />
<glyph unicode="&#xf4;" horiz-adv-x="1182" d="M113 551q0 136 33.5 241.5t95.5 178t151.5 110t200.5 37.5q103 0 190 -37.5t150.5 -110t99 -178t35.5 -241.5q0 -137 -33.5 -243.5t-96 -179t-151.5 -110.5t-200 -38q-103 0 -190 38t-150.5 110.5t-99 179t-35.5 243.5zM254 1241v27q26 29 60 67t67.5 78.5t63 81 t45.5 74.5h192q16 -34 45.5 -74.5t63 -81t68 -78.5t59.5 -67v-27h-121q-51 34 -105 82.5t-106 103.5q-54 -55 -107 -103.5t-104 -82.5h-121zM301 551q0 -209 68.5 -314.5t222.5 -105.5t221.5 105.5t67.5 314.5t-68.5 312.5t-222.5 103.5t-221.5 -103.5t-67.5 -312.5z" />
<glyph unicode="&#xf5;" horiz-adv-x="1182" d="M113 551q0 136 33.5 241.5t95.5 178t151.5 110t200.5 37.5q103 0 190 -37.5t150.5 -110t99 -178t35.5 -241.5q0 -137 -33.5 -243.5t-96 -179t-151.5 -110.5t-200 -38q-103 0 -190 38t-150.5 110.5t-99 179t-35.5 243.5zM229 1241q5 60 21.5 109t43 83.5t63.5 53t83 18.5 q42 0 82.5 -17.5t78.5 -38.5t72.5 -38.5t63.5 -17.5q45 0 68 26t38 88h105q-5 -60 -21.5 -108.5t-43 -83t-63.5 -53.5t-83 -19q-40 0 -79.5 17.5t-77.5 39t-73 39t-67 17.5q-45 0 -69 -26.5t-38 -88.5h-104zM301 551q0 -209 68.5 -314.5t222.5 -105.5t221.5 105.5 t67.5 314.5t-68.5 312.5t-222.5 103.5t-221.5 -103.5t-67.5 -312.5z" />
<glyph unicode="&#xf6;" horiz-adv-x="1182" d="M113 551q0 136 33.5 241.5t95.5 178t151.5 110t200.5 37.5q103 0 190 -37.5t150.5 -110t99 -178t35.5 -241.5q0 -137 -33.5 -243.5t-96 -179t-151.5 -110.5t-200 -38q-103 0 -190 38t-150.5 110.5t-99 179t-35.5 243.5zM301 551q0 -209 68.5 -314.5t222.5 -105.5 t221.5 105.5t67.5 314.5t-68.5 312.5t-222.5 103.5t-221.5 -103.5t-67.5 -312.5zM301 1395q0 54 28 78t68 24q39 0 68 -24.5t29 -77.5t-29 -78t-68 -25q-40 0 -68 25t-28 78zM676 1395q0 54 28 78t68 24q19 0 36.5 -6t30.5 -18.5t21 -31.5t8 -46q0 -53 -29 -78t-67 -25 q-40 0 -68 25t-28 78z" />
<glyph unicode="&#xf7;" d="M102 647v150h924v-150h-924zM449 373q0 35 9 58.5t24.5 38.5t36 21.5t44.5 6.5q23 0 44 -6.5t37 -21.5t25 -38.5t9 -58.5q0 -33 -9 -56.5t-25 -39t-37 -22.5t-44 -7q-24 0 -44.5 7t-36 22.5t-24.5 39t-9 56.5zM449 1071q0 35 9 58.5t24.5 38.5t36 21.5t44.5 6.5 q23 0 44 -6.5t37 -21.5t25 -38.5t9 -58.5q0 -33 -9 -56.5t-25 -39t-37 -22.5t-44 -7q-24 0 -44.5 7t-36 22.5t-24.5 39t-9 56.5z" />
<glyph unicode="&#xf8;" horiz-adv-x="1182" d="M115 551q0 136 33.5 241.5t95.5 178t151.5 110t200.5 37.5q63 0 119.5 -14.5t105.5 -42.5l68 108l131 -73l-80 -129q62 -73 96.5 -177.5t34.5 -238.5q0 -137 -33.5 -243.5t-96 -179t-151.5 -110.5t-200 -38q-125 0 -223 53l-68 -109l-131 74l80 131q-63 72 -98 178.5 t-35 243.5zM303 551q0 -84 9.5 -149.5t31.5 -116.5l397 647q-29 17 -66.5 26t-82.5 9q-154 0 -221.5 -103.5t-67.5 -312.5zM446 164q31 -17 67 -25t81 -8q154 0 221.5 105.5t67.5 314.5q0 159 -39 258z" />
<glyph unicode="&#xf9;" horiz-adv-x="1206" d="M164 381v717h182v-707q0 -130 53 -195t164 -65q81 0 136 26t88.5 76.5t48 124.5t14.5 170v570h182v-1098h-147l-27 147h-10q-25 -43 -59.5 -74.5t-75.5 -52t-87 -30.5t-94 -10q-91 0 -160 23t-115 72t-69.5 125t-23.5 181zM301 1548v21h219q16 -34 37.5 -74.5t44.5 -81 t47 -78.5t45 -67v-27h-120q-35 28 -76 69.5t-79.5 85.5t-70 84.5t-47.5 67.5z" />
<glyph unicode="&#xfa;" horiz-adv-x="1206" d="M164 381v717h182v-707q0 -130 53 -195t164 -65q81 0 136 26t88.5 76.5t48 124.5t14.5 170v570h182v-1098h-147l-27 147h-10q-25 -43 -59.5 -74.5t-75.5 -52t-87 -30.5t-94 -10q-91 0 -160 23t-115 72t-69.5 125t-23.5 181zM489 1241v27q22 29 45.5 67t47 78.5t44.5 81 t37 74.5h219v-21q-16 -27 -47.5 -67.5t-70 -84.5t-79 -85.5t-75.5 -69.5h-121z" />
<glyph unicode="&#xfb;" horiz-adv-x="1206" d="M164 381v717h182v-707q0 -130 53 -195t164 -65q81 0 136 26t88.5 76.5t48 124.5t14.5 170v570h182v-1098h-147l-27 147h-10q-25 -43 -59.5 -74.5t-75.5 -52t-87 -30.5t-94 -10q-91 0 -160 23t-115 72t-69.5 125t-23.5 181zM266 1241v27q26 29 60 67t67.5 78.5t63 81 t45.5 74.5h192q16 -34 45.5 -74.5t63 -81t68 -78.5t59.5 -67v-27h-121q-51 34 -105 82.5t-106 103.5q-54 -55 -107 -103.5t-104 -82.5h-121z" />
<glyph unicode="&#xfc;" horiz-adv-x="1206" d="M164 381v717h182v-707q0 -130 53 -195t164 -65q81 0 136 26t88.5 76.5t48 124.5t14.5 170v570h182v-1098h-147l-27 147h-10q-25 -43 -59.5 -74.5t-75.5 -52t-87 -30.5t-94 -10q-91 0 -160 23t-115 72t-69.5 125t-23.5 181zM309 1395q0 54 28 78t68 24q39 0 68 -24.5 t29 -77.5t-29 -78t-68 -25q-40 0 -68 25t-28 78zM684 1395q0 54 28 78t68 24q19 0 36.5 -6t30.5 -18.5t21 -31.5t8 -46q0 -53 -29 -78t-67 -25q-40 0 -68 25t-28 78z" />
<glyph unicode="&#xfd;" horiz-adv-x="1001" d="M10 1098h189l215 -613q14 -40 28.5 -84t27 -88t21.5 -85t13 -76h6q5 25 16 68t24.5 91.5t28 95.5t25.5 80l199 611h188l-434 -1241q-28 -81 -60.5 -145.5t-75.5 -109.5t-101 -69.5t-138 -24.5q-52 0 -90 5.5t-65 11.5v145q21 -5 53 -8.5t67 -3.5q48 0 83 11.5t61 33.5 t44.5 54t33.5 73l57 160zM407 1241v27q22 29 45.5 67t47 78.5t44.5 81t37 74.5h219v-21q-16 -27 -47.5 -67.5t-70 -84.5t-79 -85.5t-75.5 -69.5h-121z" />
<glyph unicode="&#xfe;" horiz-adv-x="1200" d="M174 -492v2048h182v-458l-8 -148h8q23 35 52 65.5t67.5 53t86.5 36t108 13.5q94 0 171 -36t131.5 -107.5t84.5 -177.5t30 -246q0 -141 -30 -247.5t-84.5 -178.5t-131.5 -108.5t-171 -36.5q-59 0 -107 13t-86.5 34.5t-68 50.5t-52.5 61h-12q3 -34 6 -65q2 -26 4 -53.5 t2 -43.5v-469h-182zM356 551q0 -101 13.5 -179.5t46 -132t86.5 -81t135 -27.5q135 0 198.5 109t63.5 313q0 208 -63.5 311t-200.5 103q-76 0 -128.5 -23t-85 -70t-48 -117t-17.5 -165v-41z" />
<glyph unicode="&#xff;" horiz-adv-x="1001" d="M10 1098h189l215 -613q14 -40 28.5 -84t27 -88t21.5 -85t13 -76h6q5 25 16 68t24.5 91.5t28 95.5t25.5 80l199 611h188l-434 -1241q-28 -81 -60.5 -145.5t-75.5 -109.5t-101 -69.5t-138 -24.5q-52 0 -90 5.5t-65 11.5v145q21 -5 53 -8.5t67 -3.5q48 0 83 11.5t61 33.5 t44.5 54t33.5 73l57 160zM229 1395q0 54 28 78t68 24q39 0 68 -24.5t29 -77.5t-29 -78t-68 -25q-40 0 -68 25t-28 78zM604 1395q0 54 28 78t68 24q19 0 36.5 -6t30.5 -18.5t21 -31.5t8 -46q0 -53 -29 -78t-67 -25q-40 0 -68 25t-28 78z" />
<glyph unicode="&#x152;" horiz-adv-x="1823" d="M125 735q0 170 38 308.5t117 236.5t199 151.5t283 53.5q98 0 182 -23h756v-164h-574v-452h535v-162h-535v-520h574v-164h-758q-43 -9 -88.5 -14.5t-93.5 -5.5q-163 0 -282.5 54t-198 153t-116.5 238.5t-38 309.5zM322 733q0 -137 26 -246.5t79.5 -186t136 -117 t196.5 -40.5q52 0 97 9t83 24v1112q-38 16 -82.5 24.5t-95.5 8.5q-114 0 -197 -40.5t-137 -116t-80 -184.5t-26 -247z" />
<glyph unicode="&#x153;" horiz-adv-x="1864" d="M113 551q0 136 33.5 241.5t95.5 178t151.5 110t200.5 37.5q121 0 218.5 -55.5t160.5 -161.5q60 105 152.5 161t209.5 56q99 0 178 -35.5t134 -100t84.5 -155t29.5 -200.5v-113h-692q5 -193 81.5 -284t227.5 -91q51 0 94.5 5t84 14.5t78.5 24t77 32.5v-162 q-40 -19 -78.5 -33t-79 -23t-84 -13t-94.5 -4q-130 0 -232 56t-167 165q-63 -109 -162 -165t-227 -56q-103 0 -190 38t-150.5 110.5t-99 179t-35.5 243.5zM301 551q0 -209 68.5 -314.5t222.5 -105.5q150 0 219.5 100.5t69.5 309.5q0 220 -70 323t-221 103 q-154 0 -221.5 -103.5t-67.5 -312.5zM1073 662h492q0 68 -13.5 124.5t-42 96.5t-72.5 62t-106 22q-114 0 -180.5 -78t-77.5 -227z" />
<glyph unicode="&#x178;" horiz-adv-x="1079" d="M0 1462h203l336 -739l340 739h200l-446 -893v-569h-187v559zM257 1733q0 54 28 78t68 24q39 0 68 -24.5t29 -77.5t-29 -78t-68 -25q-40 0 -68 25t-28 78zM632 1733q0 54 28 78t68 24q19 0 36.5 -6t30.5 -18.5t21 -31.5t8 -46q0 -53 -29 -78t-67 -25q-40 0 -68 25t-28 78z " />
<glyph unicode="&#x2c6;" horiz-adv-x="1182" d="M258 1241v27q26 29 60 67t67.5 78.5t63 81t45.5 74.5h192q16 -34 45.5 -74.5t63 -81t68 -78.5t59.5 -67v-27h-121q-51 34 -105 82.5t-106 103.5q-54 -55 -107 -103.5t-104 -82.5h-121z" />
<glyph unicode="&#x2dc;" horiz-adv-x="1182" d="M258 1241q5 60 21.5 109t43 83.5t63.5 53t83 18.5q42 0 82.5 -17.5t78.5 -38.5t72.5 -38.5t63.5 -17.5q45 0 68 26t38 88h105q-5 -60 -21.5 -108.5t-43 -83t-63.5 -53.5t-83 -19q-40 0 -79.5 17.5t-77.5 39t-73 39t-67 17.5q-45 0 -69 -26.5t-38 -88.5h-104z" />
<glyph unicode="&#x2000;" horiz-adv-x="987" />
<glyph unicode="&#x2001;" horiz-adv-x="1974" />
<glyph unicode="&#x2002;" horiz-adv-x="987" />
<glyph unicode="&#x2003;" horiz-adv-x="1974" />
<glyph unicode="&#x2004;" horiz-adv-x="658" />
<glyph unicode="&#x2005;" horiz-adv-x="493" />
<glyph unicode="&#x2006;" horiz-adv-x="329" />
<glyph unicode="&#x2007;" horiz-adv-x="329" />
<glyph unicode="&#x2008;" horiz-adv-x="246" />
<glyph unicode="&#x2009;" horiz-adv-x="394" />
<glyph unicode="&#x200a;" horiz-adv-x="109" />
<glyph unicode="&#x2010;" horiz-adv-x="921" d="M119 552v142h683v-142h-683z" />
<glyph unicode="&#x2011;" horiz-adv-x="921" d="M119 552v142h683v-142h-683z" />
<glyph unicode="&#x2012;" horiz-adv-x="921" d="M119 552v142h683v-142h-683z" />
<glyph unicode="&#x2013;" horiz-adv-x="921" d="M119 549v142h680v-142h-680z" />
<glyph unicode="&#x2014;" horiz-adv-x="1346" d="M100 860v142h1127v-142h-1127z" />
<glyph unicode="&#x2018;" horiz-adv-x="548" d="M114 1422q0 55 17 111.5t51 106t83.5 89t114.5 59.5l78 -102q-49 -12 -89 -41t-67.5 -65.5t-43.5 -78.5t-16 -81q0 -30 9.5 -56.5t29.5 -45.5t51.5 -31t75.5 -12h19l-38 -120q-70 0 -123 22t-86 59t-49.5 85.5t-16.5 100.5z" />
<glyph unicode="&#x2019;" horiz-adv-x="548" d="M99 1271q49 12 89 40.5t67.5 65.5t43.5 79t16 80q0 31 -9.5 57t-29.5 45.5t-51.5 31t-75.5 11.5h-19l38 121q70 0 123 -22t86 -59t49.5 -85.5t16.5 -100.5q0 -55 -17 -112t-51 -106.5t-83.5 -88.5t-114.5 -60z" />
<glyph unicode="&#x201a;" horiz-adv-x="512" d="M63 -264q15 61 29.5 127t28 131.5t24.5 128t19 115.5h198l15 -23q-14 -54 -33.5 -115t-43 -123t-49 -123.5t-50.5 -117.5h-138z" />
<glyph unicode="&#x201c;" horiz-adv-x="995" d="M114 1422q0 55 17 111.5t51 106t83.5 89t114.5 59.5l78 -102q-49 -12 -89 -41t-67.5 -65.5t-43.5 -78.5t-16 -81q0 -30 9.5 -56.5t29.5 -45.5t51.5 -31t75.5 -12h19l-38 -120q-70 0 -123 22t-86 59t-49.5 85.5t-16.5 100.5zM536 1422q0 55 17.5 111.5t51 106t83 89 t114.5 59.5l78 -102q-48 -12 -88.5 -41t-68 -65.5t-43.5 -78.5t-16 -81q0 -30 9.5 -56.5t30 -45.5t52 -31t74.5 -12h20l-39 -120q-70 0 -123 22t-86 59t-49.5 85.5t-16.5 100.5z" />
<glyph unicode="&#x201d;" horiz-adv-x="995" d="M99 1271q49 12 89 40.5t67.5 65.5t43.5 79t16 80q0 31 -9.5 57t-29.5 45.5t-51.5 31t-75.5 11.5h-19l38 121q70 0 123 -22t86 -59t49.5 -85.5t16.5 -100.5q0 -55 -17 -112t-51 -106.5t-83.5 -88.5t-114.5 -60zM522 1271q49 12 89 40.5t67.5 65.5t43.5 79t16 80 q0 31 -9.5 57t-29.5 45.5t-51.5 31t-75.5 11.5h-19l38 121q70 0 123 -22t86 -59t49.5 -85.5t16.5 -100.5q0 -55 -17 -112t-51 -106.5t-83.5 -88.5t-114.5 -60z" />
<glyph unicode="&#x201e;" horiz-adv-x="897" d="M63 -264q15 61 29.5 127t28 131.5t24.5 128t19 115.5h198l15 -23q-14 -54 -33.5 -115t-43 -123t-49 -123.5t-50.5 -117.5h-138zM449 -264q14 61 28.5 127t28 131.5t24.5 128t19 115.5h199l14 -23q-14 -54 -33.5 -115t-43 -123t-49 -123.5t-50.5 -117.5h-137z" />
<glyph unicode="&#x2026;" horiz-adv-x="1647" d="M147 111q0 38 10 64.5t27 43t40 24t50 7.5q26 0 49.5 -7.5t40.5 -24t27 -43t10 -64.5q0 -37 -10 -63.5t-27 -43.5t-40.5 -25t-49.5 -8q-27 0 -50 8t-40 25t-27 43.5t-10 63.5zM696 111q0 38 10 64.5t27 43t40 24t50 7.5q26 0 49.5 -7.5t40.5 -24t27 -43t10 -64.5 q0 -37 -10 -63.5t-27 -43.5t-40.5 -25t-49.5 -8q-27 0 -50 8t-40 25t-27 43.5t-10 63.5zM1245 111q0 38 9.5 64.5t27 43t40.5 24t50 7.5q26 0 49.5 -7.5t40.5 -24t27 -43t10 -64.5q0 -37 -10 -63.5t-27 -43.5t-40.5 -25t-49.5 -8q-54 0 -90.5 33t-36.5 107z" />
<glyph unicode="&#x202f;" horiz-adv-x="394" />
<glyph unicode="&#x2039;" horiz-adv-x="590" d="M82 526v27l309 414l117 -78l-238 -348l238 -348l-117 -78z" />
<glyph unicode="&#x203a;" horiz-adv-x="590" d="M82 193l237 348l-237 348l117 78l309 -414v-27l-309 -411z" />
<glyph unicode="&#x205f;" horiz-adv-x="493" />
<glyph unicode="&#x20ac;" d="M63 502v137h148q-2 23 -2 38v44q0 22 1 45t1 31h-148v137h160q18 125 62 226t111.5 173t159.5 111t206 39q97 0 177 -21.5t159 -70.5l-80 -146q-51 31 -110.5 52.5t-131.5 21.5q-69 0 -128 -26t-106 -75.5t-80.5 -121t-51.5 -162.5h432v-137h-447q0 -15 -1 -29 q-1 -12 -1 -25v-22v-39.5t2 -42.5h385v-137h-366q34 -175 126.5 -267t241.5 -92q75 0 142.5 16t126.5 42v-162q-59 -28 -125.5 -43.5t-157.5 -15.5q-115 0 -206 36.5t-158.5 104t-111.5 164t-65 217.5h-164z" />
<glyph unicode="&#x2122;" horiz-adv-x="1534" d="M37 1354v108h522v-108h-199v-613h-127v613h-196zM625 741v721h186l180 -551l191 551h178v-721h-127v428q0 9 0.5 24t1 32.5l1 35t1.5 29.5h-6l-195 -549h-100l-186 549h-7q1 -16 2 -33t1.5 -32t1 -27t0.5 -18v-439h-123z" />
<glyph unicode="&#x25fc;" horiz-adv-x="1100" d="M0 0v1100h1100v-1100h-1100z" />
</font>
</defs></svg> 